info face="Arial" size=18 bold=0 italic=0 charset="" unicode=1 stretchH=100 smooth=1 aa=1 padding=0,0,0,0 spacing=1,1 outline=0
common lineHeight=18 base=15 scaleW=128 scaleH=128 pages=1 packed=0 alphaChnl=1 redChnl=0 greenChnl=0 blueChnl=0
page id=0 file="arial_0.png"
chars count=94
char id=33   x=114   y=52    width=3     height=12    xoffset=1     yoffset=3     xadvance=5     page=0  chnl=15
char id=34   x=66    y=78    width=6     height=4     xoffset=0     yoffset=3     xadvance=6     page=0  chnl=15
char id=35   x=93    y=13    width=11    height=12    xoffset=-1    yoffset=3     xadvance=9     page=0  chnl=15
char id=36   x=64    y=0     width=9     height=14    xoffset=0     yoffset=2     xadvance=9     page=0  chnl=15
char id=37   x=103   y=0     width=14    height=12    xoffset=0     yoffset=3     xadvance=14    page=0  chnl=15
char id=38   x=105   y=13    width=11    height=12    xoffset=0     yoffset=3     xadvance=11    page=0  chnl=15
char id=39   x=73    y=78    width=3     height=4     xoffset=0     yoffset=3     xadvance=3     page=0  chnl=15
char id=40   x=31    y=0     width=5     height=15    xoffset=0     yoffset=3     xadvance=5     page=0  chnl=15
char id=41   x=37    y=0     width=5     height=15    xoffset=0     yoffset=3     xadvance=5     page=0  chnl=15
char id=42   x=59    y=78    width=6     height=5     xoffset=0     yoffset=3     xadvance=6     page=0  chnl=15
char id=43   x=11    y=78    width=9     height=7     xoffset=0     yoffset=6     xadvance=9     page=0  chnl=15
char id=44   x=77    y=78    width=2     height=4     xoffset=1     yoffset=14    xadvance=4     page=0  chnl=15
char id=45   x=107   y=76    width=5     height=1     xoffset=0     yoffset=11    xadvance=5     page=0  chnl=15
char id=46   x=113   y=75    width=2     height=1     xoffset=1     yoffset=14    xadvance=4     page=0  chnl=15
char id=47   x=97    y=53    width=6     height=12    xoffset=-1    yoffset=3     xadvance=4     page=0  chnl=15
char id=48   x=20    y=55    width=9     height=12    xoffset=0     yoffset=3     xadvance=9     page=0  chnl=15
char id=49   x=121   y=39    width=6     height=12    xoffset=1     yoffset=3     xadvance=9     page=0  chnl=15
char id=50   x=30    y=55    width=9     height=12    xoffset=0     yoffset=3     xadvance=9     page=0  chnl=15
char id=51   x=118   y=0     width=9     height=12    xoffset=0     yoffset=3     xadvance=9     page=0  chnl=15
char id=52   x=11    y=42    width=9     height=12    xoffset=0     yoffset=3     xadvance=9     page=0  chnl=15
char id=53   x=21    y=42    width=9     height=12    xoffset=0     yoffset=3     xadvance=9     page=0  chnl=15
char id=54   x=31    y=42    width=9     height=12    xoffset=0     yoffset=3     xadvance=9     page=0  chnl=15
char id=55   x=61    y=42    width=9     height=12    xoffset=0     yoffset=3     xadvance=9     page=0  chnl=15
char id=56   x=41    y=42    width=9     height=12    xoffset=0     yoffset=3     xadvance=9     page=0  chnl=15
char id=57   x=51    y=42    width=9     height=12    xoffset=0     yoffset=3     xadvance=9     page=0  chnl=15
char id=58   x=7     y=78    width=3     height=9     xoffset=0     yoffset=6     xadvance=4     page=0  chnl=15
char id=59   x=122   y=52    width=3     height=12    xoffset=0     yoffset=6     xadvance=4     page=0  chnl=15
char id=60   x=31    y=78    width=9     height=7     xoffset=0     yoffset=6     xadvance=9     page=0  chnl=15
char id=61   x=49    y=78    width=9     height=5     xoffset=0     yoffset=7     xadvance=9     page=0  chnl=15
char id=62   x=21    y=78    width=9     height=7     xoffset=0     yoffset=6     xadvance=9     page=0  chnl=15
char id=63   x=111   y=39    width=9     height=12    xoffset=0     yoffset=3     xadvance=9     page=0  chnl=15
char id=64   x=0     y=0     width=16    height=15    xoffset=0     yoffset=3     xadvance=16    page=0  chnl=15
char id=65   x=14    y=16    width=13    height=12    xoffset=-1    yoffset=3     xadvance=11    page=0  chnl=15
char id=66   x=0     y=42    width=10    height=12    xoffset=1     yoffset=3     xadvance=11    page=0  chnl=15
char id=67   x=41    y=16    width=12    height=12    xoffset=0     yoffset=3     xadvance=12    page=0  chnl=15
char id=68   x=36    y=29    width=11    height=12    xoffset=1     yoffset=3     xadvance=12    page=0  chnl=15
char id=69   x=107   y=26    width=10    height=12    xoffset=1     yoffset=3     xadvance=11    page=0  chnl=15
char id=70   x=118   y=26    width=9     height=12    xoffset=1     yoffset=3     xadvance=10    page=0  chnl=15
char id=71   x=54    y=16    width=12    height=12    xoffset=0     yoffset=3     xadvance=12    page=0  chnl=15
char id=72   x=60    y=29    width=11    height=12    xoffset=0     yoffset=3     xadvance=11    page=0  chnl=15
char id=73   x=110   y=52    width=3     height=12    xoffset=0     yoffset=3     xadvance=3     page=0  chnl=15
char id=74   x=67    y=55    width=7     height=12    xoffset=0     yoffset=3     xadvance=8     page=0  chnl=15
char id=75   x=72    y=28    width=11    height=12    xoffset=1     yoffset=3     xadvance=11    page=0  chnl=15
char id=76   x=49    y=55    width=8     height=12    xoffset=1     yoffset=3     xadvance=9     page=0  chnl=15
char id=77   x=0     y=16    width=13    height=12    xoffset=0     yoffset=3     xadvance=13    page=0  chnl=15
char id=78   x=24    y=29    width=11    height=12    xoffset=0     yoffset=3     xadvance=11    page=0  chnl=15
char id=79   x=67    y=15    width=12    height=12    xoffset=0     yoffset=3     xadvance=12    page=0  chnl=15
char id=80   x=117   y=13    width=10    height=12    xoffset=1     yoffset=3     xadvance=11    page=0  chnl=15
char id=81   x=74    y=0     width=12    height=13    xoffset=0     yoffset=3     xadvance=12    page=0  chnl=15
char id=82   x=84    y=27    width=11    height=12    xoffset=0     yoffset=3     xadvance=11    page=0  chnl=15
char id=83   x=0     y=29    width=11    height=12    xoffset=0     yoffset=3     xadvance=11    page=0  chnl=15
char id=84   x=12    y=29    width=11    height=12    xoffset=-1    yoffset=3     xadvance=9     page=0  chnl=15
char id=85   x=48    y=29    width=11    height=12    xoffset=0     yoffset=3     xadvance=11    page=0  chnl=15
char id=86   x=80    y=14    width=12    height=12    xoffset=-1    yoffset=3     xadvance=11    page=0  chnl=15
char id=87   x=87    y=0     width=15    height=12    xoffset=0     yoffset=3     xadvance=15    page=0  chnl=15
char id=88   x=28    y=16    width=12    height=12    xoffset=-1    yoffset=3     xadvance=11    page=0  chnl=15
char id=89   x=96    y=26    width=10    height=12    xoffset=-1    yoffset=3     xadvance=9     page=0  chnl=15
char id=90   x=101   y=39    width=9     height=12    xoffset=0     yoffset=3     xadvance=9     page=0  chnl=15
char id=91   x=43    y=0     width=5     height=15    xoffset=0     yoffset=3     xadvance=4     page=0  chnl=15
char id=92   x=104   y=52    width=5     height=12    xoffset=0     yoffset=3     xadvance=4     page=0  chnl=15
char id=93   x=49    y=0     width=5     height=15    xoffset=-1    yoffset=3     xadvance=4     page=0  chnl=15
char id=94   x=41    y=78    width=7     height=6     xoffset=0     yoffset=3     xadvance=7     page=0  chnl=15
char id=95   x=95    y=77    width=11    height=1     xoffset=-1    yoffset=17    xadvance=9     page=0  chnl=15
char id=96   x=90    y=78    width=4     height=2     xoffset=0     yoffset=3     xadvance=5     page=0  chnl=15
char id=97   x=72    y=68    width=9     height=9     xoffset=0     yoffset=6     xadvance=9     page=0  chnl=15
char id=98   x=71    y=42    width=9     height=12    xoffset=0     yoffset=3     xadvance=9     page=0  chnl=15
char id=99   x=82    y=68    width=8     height=9     xoffset=0     yoffset=6     xadvance=8     page=0  chnl=15
char id=100  x=81    y=41    width=9     height=12    xoffset=0     yoffset=3     xadvance=9     page=0  chnl=15
char id=101  x=32    y=68    width=9     height=9     xoffset=0     yoffset=6     xadvance=9     page=0  chnl=15
char id=102  x=90    y=54    width=6     height=12    xoffset=-1    yoffset=3     xadvance=4     page=0  chnl=15
char id=103  x=91    y=40    width=9     height=12    xoffset=0     yoffset=6     xadvance=9     page=0  chnl=15
char id=104  x=40    y=55    width=8     height=12    xoffset=0     yoffset=3     xadvance=8     page=0  chnl=15
char id=105  x=0     y=68    width=3     height=12    xoffset=0     yoffset=3     xadvance=4     page=0  chnl=15
char id=106  x=55    y=0     width=4     height=15    xoffset=-1    yoffset=3     xadvance=3     page=0  chnl=15
char id=107  x=58    y=55    width=8     height=12    xoffset=0     yoffset=3     xadvance=8     page=0  chnl=15
char id=108  x=118   y=52    width=3     height=12    xoffset=0     yoffset=3     xadvance=3     page=0  chnl=15
char id=109  x=4     y=68    width=13    height=9     xoffset=0     yoffset=6     xadvance=13    page=0  chnl=15
char id=110  x=91    y=67    width=8     height=9     xoffset=0     yoffset=6     xadvance=8     page=0  chnl=15
char id=111  x=42    y=68    width=9     height=9     xoffset=0     yoffset=6     xadvance=9     page=0  chnl=15
char id=112  x=0     y=55    width=9     height=12    xoffset=0     yoffset=6     xadvance=9     page=0  chnl=15
char id=113  x=10    y=55    width=9     height=12    xoffset=0     yoffset=6     xadvance=9     page=0  chnl=15
char id=114  x=0     y=81    width=6     height=9     xoffset=0     yoffset=6     xadvance=5     page=0  chnl=15
char id=115  x=100   y=66    width=8     height=9     xoffset=0     yoffset=6     xadvance=8     page=0  chnl=15
char id=116  x=83    y=54    width=6     height=12    xoffset=-1    yoffset=3     xadvance=4     page=0  chnl=15
char id=117  x=109   y=65    width=8     height=9     xoffset=0     yoffset=6     xadvance=8     page=0  chnl=15
char id=118  x=52    y=68    width=9     height=9     xoffset=-1    yoffset=6     xadvance=7     page=0  chnl=15
char id=119  x=18    y=68    width=13    height=9     xoffset=-1    yoffset=6     xadvance=11    page=0  chnl=15
char id=120  x=118   y=65    width=7     height=9     xoffset=0     yoffset=6     xadvance=7     page=0  chnl=15
char id=121  x=75    y=55    width=7     height=12    xoffset=0     yoffset=6     xadvance=7     page=0  chnl=15
char id=122  x=62    y=68    width=9     height=9     xoffset=-1    yoffset=6     xadvance=7     page=0  chnl=15
char id=123  x=24    y=0     width=6     height=15    xoffset=0     yoffset=3     xadvance=5     page=0  chnl=15
char id=124  x=60    y=0     width=3     height=15    xoffset=0     yoffset=3     xadvance=3     page=0  chnl=15
char id=125  x=17    y=0     width=6     height=15    xoffset=-1    yoffset=3     xadvance=5     page=0  chnl=15
char id=126  x=80    y=78    width=9     height=2     xoffset=0     yoffset=8     xadvance=9     page=0  chnl=15
kernings count=67
kerning first=121 second=46  amount=-1  
kerning first=121 second=44  amount=-1  
kerning first=119 second=46  amount=-1  
kerning first=119 second=44  amount=-1  
kerning first=118 second=46  amount=-1  
kerning first=118 second=44  amount=-1  
kerning first=114 second=46  amount=-1  
kerning first=114 second=44  amount=-1  
kerning first=89  second=118 amount=-1  
kerning first=89  second=117 amount=-1  
kerning first=49  second=49  amount=-1  
kerning first=89  second=113 amount=-1  
kerning first=65  second=84  amount=-1  
kerning first=65  second=86  amount=-1  
kerning first=65  second=87  amount=-1  
kerning first=65  second=89  amount=-1  
kerning first=89  second=112 amount=-1  
kerning first=89  second=111 amount=-1  
kerning first=89  second=105 amount=-1  
kerning first=89  second=101 amount=-1  
kerning first=70  second=44  amount=-2  
kerning first=70  second=46  amount=-2  
kerning first=70  second=65  amount=-1  
kerning first=89  second=97  amount=-1  
kerning first=76  second=84  amount=-1  
kerning first=76  second=86  amount=-1  
kerning first=76  second=87  amount=-1  
kerning first=76  second=89  amount=-1  
kerning first=76  second=121 amount=-1  
kerning first=89  second=65  amount=-1  
kerning first=89  second=58  amount=-1  
kerning first=80  second=44  amount=-2  
kerning first=80  second=46  amount=-2  
kerning first=80  second=65  amount=-1  
kerning first=89  second=46  amount=-2  
kerning first=89  second=45  amount=-1  
kerning first=89  second=44  amount=-2  
kerning first=87  second=97  amount=-1  
kerning first=87  second=65  amount=-1  
kerning first=84  second=44  amount=-2  
kerning first=84  second=45  amount=-1  
kerning first=84  second=46  amount=-2  
kerning first=84  second=58  amount=-2  
kerning first=87  second=46  amount=-1  
kerning first=84  second=65  amount=-1  
kerning first=87  second=44  amount=-1  
kerning first=84  second=97  amount=-2  
kerning first=84  second=99  amount=-2  
kerning first=84  second=101 amount=-2  
kerning first=84  second=105 amount=-1  
kerning first=84  second=111 amount=-2  
kerning first=84  second=114 amount=-1  
kerning first=84  second=115 amount=-2  
kerning first=84  second=117 amount=-1  
kerning first=84  second=119 amount=-1  
kerning first=84  second=121 amount=-1  
kerning first=86  second=44  amount=-1  
kerning first=86  second=45  amount=-1  
kerning first=86  second=46  amount=-1  
kerning first=86  second=58  amount=-1  
kerning first=86  second=121 amount=-1  
kerning first=86  second=65  amount=-1  
kerning first=86  second=97  amount=-1  
kerning first=86  second=101 amount=-1  
kerning first=86  second=117 amount=-1  
kerning first=86  second=111 amount=-1  
kerning first=86  second=114 amount=-1  
