{"frames": [

{
	"filename": "drone_anim_bl_0000.png",
	"frame": {"x":1,"y":1,"w":74,"h":64},
	"rotated": false,
	"trimmed": true,
	"spriteSourceSize": {"x":127,"y":113,"w":74,"h":64},
	"sourceSize": {"w":320,"h":320},
	"pivot": {"x":0.5,"y":0.5}
},
{
	"filename": "drone_anim_bl_0001.png",
	"frame": {"x":77,"y":1,"w":68,"h":64},
	"rotated": false,
	"trimmed": true,
	"spriteSourceSize": {"x":127,"y":113,"w":68,"h":64},
	"sourceSize": {"w":320,"h":320},
	"pivot": {"x":0.5,"y":0.5}
},
{
	"filename": "drone_anim_bl_0002.png",
	"frame": {"x":147,"y":1,"w":71,"h":64},
	"rotated": false,
	"trimmed": true,
	"spriteSourceSize": {"x":122,"y":114,"w":71,"h":64},
	"sourceSize": {"w":320,"h":320},
	"pivot": {"x":0.5,"y":0.5}
},
{
	"filename": "drone_anim_bl_0003.png",
	"frame": {"x":220,"y":1,"w":74,"h":68},
	"rotated": false,
	"trimmed": true,
	"spriteSourceSize": {"x":119,"y":114,"w":74,"h":68},
	"sourceSize": {"w":320,"h":320},
	"pivot": {"x":0.5,"y":0.5}
},
{
	"filename": "drone_anim_bl_0004.png",
	"frame": {"x":296,"y":1,"w":74,"h":68},
	"rotated": false,
	"trimmed": true,
	"spriteSourceSize": {"x":119,"y":115,"w":74,"h":68},
	"sourceSize": {"w":320,"h":320},
	"pivot": {"x":0.5,"y":0.5}
},
{
	"filename": "drone_anim_bl_0005.png",
	"frame": {"x":372,"y":1,"w":77,"h":69},
	"rotated": false,
	"trimmed": true,
	"spriteSourceSize": {"x":116,"y":115,"w":77,"h":69},
	"sourceSize": {"w":320,"h":320},
	"pivot": {"x":0.5,"y":0.5}
},
{
	"filename": "drone_anim_bl_0006.png",
	"frame": {"x":1,"y":72,"w":80,"h":69},
	"rotated": false,
	"trimmed": true,
	"spriteSourceSize": {"x":113,"y":116,"w":80,"h":69},
	"sourceSize": {"w":320,"h":320},
	"pivot": {"x":0.5,"y":0.5}
},
{
	"filename": "drone_anim_bl_0007.png",
	"frame": {"x":83,"y":72,"w":79,"h":69},
	"rotated": false,
	"trimmed": true,
	"spriteSourceSize": {"x":114,"y":117,"w":79,"h":69},
	"sourceSize": {"w":320,"h":320},
	"pivot": {"x":0.5,"y":0.5}
},
{
	"filename": "drone_anim_bl_0008.png",
	"frame": {"x":164,"y":72,"w":79,"h":66},
	"rotated": false,
	"trimmed": true,
	"spriteSourceSize": {"x":114,"y":118,"w":79,"h":66},
	"sourceSize": {"w":320,"h":320},
	"pivot": {"x":0.5,"y":0.5}
},
{
	"filename": "drone_anim_bl_0009.png",
	"frame": {"x":245,"y":72,"w":80,"h":64},
	"rotated": false,
	"trimmed": true,
	"spriteSourceSize": {"x":116,"y":119,"w":80,"h":64},
	"sourceSize": {"w":320,"h":320},
	"pivot": {"x":0.5,"y":0.5}
},
{
	"filename": "drone_anim_bl_0010.png",
	"frame": {"x":327,"y":72,"w":78,"h":61},
	"rotated": false,
	"trimmed": true,
	"spriteSourceSize": {"x":118,"y":120,"w":78,"h":61},
	"sourceSize": {"w":320,"h":320},
	"pivot": {"x":0.5,"y":0.5}
},
{
	"filename": "drone_anim_bl_0011.png",
	"frame": {"x":407,"y":72,"w":74,"h":60},
	"rotated": false,
	"trimmed": true,
	"spriteSourceSize": {"x":122,"y":120,"w":74,"h":60},
	"sourceSize": {"w":320,"h":320},
	"pivot": {"x":0.5,"y":0.5}
},
{
	"filename": "drone_anim_bl_0012.png",
	"frame": {"x":1,"y":143,"w":71,"h":61},
	"rotated": false,
	"trimmed": true,
	"spriteSourceSize": {"x":125,"y":119,"w":71,"h":61},
	"sourceSize": {"w":320,"h":320},
	"pivot": {"x":0.5,"y":0.5}
},
{
	"filename": "drone_anim_bl_0013.png",
	"frame": {"x":74,"y":143,"w":72,"h":61},
	"rotated": false,
	"trimmed": true,
	"spriteSourceSize": {"x":124,"y":117,"w":72,"h":61},
	"sourceSize": {"w":320,"h":320},
	"pivot": {"x":0.5,"y":0.5}
},
{
	"filename": "drone_anim_bl_0014.png",
	"frame": {"x":148,"y":143,"w":71,"h":63},
	"rotated": false,
	"trimmed": true,
	"spriteSourceSize": {"x":127,"y":115,"w":71,"h":63},
	"sourceSize": {"w":320,"h":320},
	"pivot": {"x":0.5,"y":0.5}
},
{
	"filename": "drone_anim_bl_0015.png",
	"frame": {"x":221,"y":143,"w":74,"h":64},
	"rotated": false,
	"trimmed": true,
	"spriteSourceSize": {"x":127,"y":113,"w":74,"h":64},
	"sourceSize": {"w":320,"h":320},
	"pivot": {"x":0.5,"y":0.5}
},
{
	"filename": "drone_anim_bl_0016.png",
	"frame": {"x":297,"y":143,"w":74,"h":64},
	"rotated": false,
	"trimmed": true,
	"spriteSourceSize": {"x":127,"y":113,"w":74,"h":64},
	"sourceSize": {"w":320,"h":320},
	"pivot": {"x":0.5,"y":0.5}
},
{
	"filename": "drone_anim_br_0000.png",
	"frame": {"x":373,"y":143,"w":77,"h":67},
	"rotated": false,
	"trimmed": true,
	"spriteSourceSize": {"x":113,"y":113,"w":77,"h":67},
	"sourceSize": {"w":320,"h":320},
	"pivot": {"x":0.5,"y":0.5}
},
{
	"filename": "drone_anim_br_0001.png",
	"frame": {"x":1,"y":212,"w":75,"h":66},
	"rotated": false,
	"trimmed": true,
	"spriteSourceSize": {"x":117,"y":114,"w":75,"h":66},
	"sourceSize": {"w":320,"h":320},
	"pivot": {"x":0.5,"y":0.5}
},
{
	"filename": "drone_anim_br_0002.png",
	"frame": {"x":78,"y":212,"w":72,"h":69},
	"rotated": false,
	"trimmed": true,
	"spriteSourceSize": {"x":122,"y":114,"w":72,"h":69},
	"sourceSize": {"w":320,"h":320},
	"pivot": {"x":0.5,"y":0.5}
},
{
	"filename": "drone_anim_br_0003.png",
	"frame": {"x":152,"y":212,"w":73,"h":70},
	"rotated": false,
	"trimmed": true,
	"spriteSourceSize": {"x":122,"y":115,"w":73,"h":70},
	"sourceSize": {"w":320,"h":320},
	"pivot": {"x":0.5,"y":0.5}
},
{
	"filename": "drone_anim_br_0004.png",
	"frame": {"x":227,"y":212,"w":76,"h":70},
	"rotated": false,
	"trimmed": true,
	"spriteSourceSize": {"x":122,"y":115,"w":76,"h":70},
	"sourceSize": {"w":320,"h":320},
	"pivot": {"x":0.5,"y":0.5}
},
{
	"filename": "drone_anim_br_0005.png",
	"frame": {"x":305,"y":212,"w":79,"h":71},
	"rotated": false,
	"trimmed": true,
	"spriteSourceSize": {"x":122,"y":115,"w":79,"h":71},
	"sourceSize": {"w":320,"h":320},
	"pivot": {"x":0.5,"y":0.5}
},
{
	"filename": "drone_anim_br_0006.png",
	"frame": {"x":386,"y":212,"w":79,"h":72},
	"rotated": false,
	"trimmed": true,
	"spriteSourceSize": {"x":122,"y":116,"w":79,"h":72},
	"sourceSize": {"w":320,"h":320},
	"pivot": {"x":0.5,"y":0.5}
},
{
	"filename": "drone_anim_br_0007.png",
	"frame": {"x":1,"y":286,"w":81,"h":70},
	"rotated": false,
	"trimmed": true,
	"spriteSourceSize": {"x":122,"y":117,"w":81,"h":70},
	"sourceSize": {"w":320,"h":320},
	"pivot": {"x":0.5,"y":0.5}
},
{
	"filename": "drone_anim_br_0008.png",
	"frame": {"x":84,"y":286,"w":82,"h":69},
	"rotated": false,
	"trimmed": true,
	"spriteSourceSize": {"x":119,"y":118,"w":82,"h":69},
	"sourceSize": {"w":320,"h":320},
	"pivot": {"x":0.5,"y":0.5}
},
{
	"filename": "drone_anim_br_0009.png",
	"frame": {"x":168,"y":286,"w":80,"h":66},
	"rotated": false,
	"trimmed": true,
	"spriteSourceSize": {"x":119,"y":120,"w":80,"h":66},
	"sourceSize": {"w":320,"h":320},
	"pivot": {"x":0.5,"y":0.5}
},
{
	"filename": "drone_anim_br_0010.png",
	"frame": {"x":250,"y":286,"w":79,"h":65},
	"rotated": false,
	"trimmed": true,
	"spriteSourceSize": {"x":119,"y":120,"w":79,"h":65},
	"sourceSize": {"w":320,"h":320},
	"pivot": {"x":0.5,"y":0.5}
},
{
	"filename": "drone_anim_br_0011.png",
	"frame": {"x":331,"y":286,"w":77,"h":63},
	"rotated": false,
	"trimmed": true,
	"spriteSourceSize": {"x":119,"y":120,"w":77,"h":63},
	"sourceSize": {"w":320,"h":320},
	"pivot": {"x":0.5,"y":0.5}
},
{
	"filename": "drone_anim_br_0012.png",
	"frame": {"x":410,"y":286,"w":75,"h":62},
	"rotated": false,
	"trimmed": true,
	"spriteSourceSize": {"x":119,"y":119,"w":75,"h":62},
	"sourceSize": {"w":320,"h":320},
	"pivot": {"x":0.5,"y":0.5}
},
{
	"filename": "drone_anim_br_0013.png",
	"frame": {"x":1,"y":358,"w":74,"h":64},
	"rotated": false,
	"trimmed": true,
	"spriteSourceSize": {"x":117,"y":117,"w":74,"h":64},
	"sourceSize": {"w":320,"h":320},
	"pivot": {"x":0.5,"y":0.5}
},
{
	"filename": "drone_anim_br_0014.png",
	"frame": {"x":77,"y":358,"w":77,"h":65},
	"rotated": false,
	"trimmed": true,
	"spriteSourceSize": {"x":113,"y":115,"w":77,"h":65},
	"sourceSize": {"w":320,"h":320},
	"pivot": {"x":0.5,"y":0.5}
},
{
	"filename": "drone_anim_br_0015.png",
	"frame": {"x":156,"y":358,"w":76,"h":66},
	"rotated": false,
	"trimmed": true,
	"spriteSourceSize": {"x":113,"y":114,"w":76,"h":66},
	"sourceSize": {"w":320,"h":320},
	"pivot": {"x":0.5,"y":0.5}
},
{
	"filename": "drone_anim_br_0016.png",
	"frame": {"x":234,"y":358,"w":77,"h":67},
	"rotated": false,
	"trimmed": true,
	"spriteSourceSize": {"x":113,"y":113,"w":77,"h":67},
	"sourceSize": {"w":320,"h":320},
	"pivot": {"x":0.5,"y":0.5}
}],
"meta": {
	"app": "http://www.codeandweb.com/texturepacker",
	"version": "1.0",
	"image": "droid_anim_1.png",
	"format": "RGBA8888",
	"size": {"w":512,"h":512},
	"scale": "1",
	"smartupdate": "$TexturePacker:SmartUpdate:00c6415e8abfe3ad889bf3bc09c6aad8:7c8f3ff8231e8ccbb8bd874107203ad4:ec58e48df71b7c7c397730a8d885d470$"
}
}
