{"frames": [

{
	"filename": "artillery_tr_0000.png",
	"frame": {"x":157,"y":416,"w":53,"h":78},
	"rotated": false,
	"trimmed": true,
	"spriteSourceSize": {"x":111,"y":70,"w":53,"h":78},
	"sourceSize": {"w":260,"h":260},
	"pivot": {"x":0.5,"y":0.5}
},
{
	"filename": "artillery_tr_0001.png",
	"frame": {"x":212,"y":417,"w":52,"h":78},
	"rotated": false,
	"trimmed": true,
	"spriteSourceSize": {"x":111,"y":70,"w":52,"h":78},
	"sourceSize": {"w":260,"h":260},
	"pivot": {"x":0.5,"y":0.5}
},
{
	"filename": "artillery_tr_0002.png",
	"frame": {"x":266,"y":421,"w":51,"h":78},
	"rotated": false,
	"trimmed": true,
	"spriteSourceSize": {"x":111,"y":70,"w":51,"h":78},
	"sourceSize": {"w":260,"h":260},
	"pivot": {"x":0.5,"y":0.5}
},
{
	"filename": "artillery_tr_0003.png",
	"frame": {"x":266,"y":501,"w":51,"h":79},
	"rotated": false,
	"trimmed": true,
	"spriteSourceSize": {"x":110,"y":70,"w":51,"h":79},
	"sourceSize": {"w":260,"h":260},
	"pivot": {"x":0.5,"y":0.5}
},
{
	"filename": "artillery_tr_0004.png",
	"frame": {"x":48,"y":413,"w":49,"h":78},
	"rotated": false,
	"trimmed": true,
	"spriteSourceSize": {"x":110,"y":70,"w":49,"h":78},
	"sourceSize": {"w":260,"h":260},
	"pivot": {"x":0.5,"y":0.5}
},
{
	"filename": "artillery_tr_0005.png",
	"frame": {"x":319,"y":422,"w":49,"h":78},
	"rotated": false,
	"trimmed": true,
	"spriteSourceSize": {"x":109,"y":71,"w":49,"h":78},
	"sourceSize": {"w":260,"h":260},
	"pivot": {"x":0.5,"y":0.5}
},
{
	"filename": "artillery_tr_0006.png",
	"frame": {"x":370,"y":422,"w":48,"h":78},
	"rotated": false,
	"trimmed": true,
	"spriteSourceSize": {"x":109,"y":71,"w":48,"h":78},
	"sourceSize": {"w":260,"h":260},
	"pivot": {"x":0.5,"y":0.5}
},
{
	"filename": "artillery_tr_0007.png",
	"frame": {"x":420,"y":425,"w":46,"h":78},
	"rotated": false,
	"trimmed": true,
	"spriteSourceSize": {"x":109,"y":71,"w":46,"h":78},
	"sourceSize": {"w":260,"h":260},
	"pivot": {"x":0.5,"y":0.5}
},
{
	"filename": "artillery_tr_0008.png",
	"frame": {"x":468,"y":428,"w":46,"h":78},
	"rotated": false,
	"trimmed": true,
	"spriteSourceSize": {"x":108,"y":71,"w":46,"h":78},
	"sourceSize": {"w":260,"h":260},
	"pivot": {"x":0.5,"y":0.5}
},
{
	"filename": "artillery_tr_0009.png",
	"frame": {"x":165,"y":337,"w":45,"h":77},
	"rotated": false,
	"trimmed": true,
	"spriteSourceSize": {"x":108,"y":72,"w":45,"h":77},
	"sourceSize": {"w":260,"h":260},
	"pivot": {"x":0.5,"y":0.5}
},
{
	"filename": "artillery_tr_0010.png",
	"frame": {"x":212,"y":338,"w":44,"h":77},
	"rotated": false,
	"trimmed": true,
	"spriteSourceSize": {"x":108,"y":72,"w":44,"h":77},
	"sourceSize": {"w":260,"h":260},
	"pivot": {"x":0.5,"y":0.5}
},
{
	"filename": "artillery_tr_0011.png",
	"frame": {"x":258,"y":338,"w":43,"h":77},
	"rotated": false,
	"trimmed": true,
	"spriteSourceSize": {"x":108,"y":72,"w":43,"h":77},
	"sourceSize": {"w":260,"h":260},
	"pivot": {"x":0.5,"y":0.5}
},
{
	"filename": "artillery_tr_0012.png",
	"frame": {"x":303,"y":342,"w":44,"h":77},
	"rotated": false,
	"trimmed": true,
	"spriteSourceSize": {"x":107,"y":72,"w":44,"h":77},
	"sourceSize": {"w":260,"h":260},
	"pivot": {"x":0.5,"y":0.5}
},
{
	"filename": "artillery_tr_0013.png",
	"frame": {"x":349,"y":343,"w":43,"h":77},
	"rotated": false,
	"trimmed": true,
	"spriteSourceSize": {"x":108,"y":72,"w":43,"h":77},
	"sourceSize": {"w":260,"h":260},
	"pivot": {"x":0.5,"y":0.5}
},
{
	"filename": "artillery_tr_0014.png",
	"frame": {"x":394,"y":343,"w":44,"h":77},
	"rotated": false,
	"trimmed": true,
	"spriteSourceSize": {"x":107,"y":72,"w":44,"h":77},
	"sourceSize": {"w":260,"h":260},
	"pivot": {"x":0.5,"y":0.5}
},
{
	"filename": "artillery_tr_0015.png",
	"frame": {"x":440,"y":346,"w":44,"h":77},
	"rotated": false,
	"trimmed": true,
	"spriteSourceSize": {"x":107,"y":72,"w":44,"h":77},
	"sourceSize": {"w":260,"h":260},
	"pivot": {"x":0.5,"y":0.5}
},
{
	"filename": "artillery_tr_0017.png",
	"frame": {"x":516,"y":428,"w":53,"h":78},
	"rotated": false,
	"trimmed": true,
	"spriteSourceSize": {"x":111,"y":70,"w":53,"h":78},
	"sourceSize": {"w":260,"h":260},
	"pivot": {"x":0.5,"y":0.5}
},
{
	"filename": "artillery_tr_0018.png",
	"frame": {"x":571,"y":431,"w":56,"h":78},
	"rotated": false,
	"trimmed": true,
	"spriteSourceSize": {"x":111,"y":70,"w":56,"h":78},
	"sourceSize": {"w":260,"h":260},
	"pivot": {"x":0.5,"y":0.5}
},
{
	"filename": "artillery_tr_0019.png",
	"frame": {"x":629,"y":433,"w":59,"h":78},
	"rotated": false,
	"trimmed": true,
	"spriteSourceSize": {"x":110,"y":71,"w":59,"h":78},
	"sourceSize": {"w":260,"h":260},
	"pivot": {"x":0.5,"y":0.5}
},
{
	"filename": "artillery_tr_0020.png",
	"frame": {"x":486,"y":349,"w":62,"h":77},
	"rotated": false,
	"trimmed": true,
	"spriteSourceSize": {"x":109,"y":72,"w":62,"h":77},
	"sourceSize": {"w":260,"h":260},
	"pivot": {"x":0.5,"y":0.5}
},
{
	"filename": "artillery_tr_0021.png",
	"frame": {"x":496,"y":271,"w":64,"h":76},
	"rotated": false,
	"trimmed": true,
	"spriteSourceSize": {"x":108,"y":73,"w":64,"h":76},
	"sourceSize": {"w":260,"h":260},
	"pivot": {"x":0.5,"y":0.5}
},
{
	"filename": "artillery_tr_0022.png",
	"frame": {"x":675,"y":276,"w":66,"h":76},
	"rotated": false,
	"trimmed": true,
	"spriteSourceSize": {"x":107,"y":74,"w":66,"h":76},
	"sourceSize": {"w":260,"h":260},
	"pivot": {"x":0.5,"y":0.5}
},
{
	"filename": "artillery_tr_0023.png",
	"frame": {"x":550,"y":349,"w":68,"h":77},
	"rotated": false,
	"trimmed": true,
	"spriteSourceSize": {"x":106,"y":73,"w":68,"h":77},
	"sourceSize": {"w":260,"h":260},
	"pivot": {"x":0.5,"y":0.5}
},
{
	"filename": "artillery_tr_0024.png",
	"frame": {"x":690,"y":433,"w":68,"h":78},
	"rotated": false,
	"trimmed": true,
	"spriteSourceSize": {"x":107,"y":72,"w":68,"h":78},
	"sourceSize": {"w":260,"h":260},
	"pivot": {"x":0.5,"y":0.5}
},
{
	"filename": "artillery_tr_0025.png",
	"frame": {"x":760,"y":439,"w":67,"h":78},
	"rotated": false,
	"trimmed": true,
	"spriteSourceSize": {"x":108,"y":71,"w":67,"h":78},
	"sourceSize": {"w":260,"h":260},
	"pivot": {"x":0.5,"y":0.5}
},
{
	"filename": "artillery_tr_0026.png",
	"frame": {"x":829,"y":439,"w":65,"h":78},
	"rotated": false,
	"trimmed": true,
	"spriteSourceSize": {"x":110,"y":71,"w":65,"h":78},
	"sourceSize": {"w":260,"h":260},
	"pivot": {"x":0.5,"y":0.5}
},
{
	"filename": "artillery_tr_0027.png",
	"frame": {"x":743,"y":276,"w":66,"h":76},
	"rotated": false,
	"trimmed": true,
	"spriteSourceSize": {"x":109,"y":73,"w":66,"h":76},
	"sourceSize": {"w":260,"h":260},
	"pivot": {"x":0.5,"y":0.5}
},
{
	"filename": "artillery_tr_0028.png",
	"frame": {"x":508,"y":195,"w":69,"h":74},
	"rotated": false,
	"trimmed": true,
	"spriteSourceSize": {"x":105,"y":78,"w":69,"h":74},
	"sourceSize": {"w":260,"h":260},
	"pivot": {"x":0.5,"y":0.5}
},
{
	"filename": "artillery_tr_0029.png",
	"frame": {"x":177,"y":260,"w":73,"h":75},
	"rotated": false,
	"trimmed": true,
	"spriteSourceSize": {"x":99,"y":80,"w":73,"h":75},
	"sourceSize": {"w":260,"h":260},
	"pivot": {"x":0.5,"y":0.5}
},
{
	"filename": "artillery_tr_0030.png",
	"frame": {"x":252,"y":261,"w":79,"h":75},
	"rotated": false,
	"trimmed": true,
	"spriteSourceSize": {"x":96,"y":81,"w":79,"h":75},
	"sourceSize": {"w":260,"h":260},
	"pivot": {"x":0.5,"y":0.5}
},
{
	"filename": "artillery_tr_0031.png",
	"frame": {"x":131,"y":185,"w":73,"h":73},
	"rotated": false,
	"trimmed": true,
	"spriteSourceSize": {"x":98,"y":83,"w":73,"h":73},
	"sourceSize": {"w":260,"h":260},
	"pivot": {"x":0.5,"y":0.5}
},
{
	"filename": "artillery_tr_0032.png",
	"frame": {"x":941,"y":60,"w":71,"h":70},
	"rotated": false,
	"trimmed": true,
	"spriteSourceSize": {"x":100,"y":84,"w":71,"h":70},
	"sourceSize": {"w":260,"h":260},
	"pivot": {"x":0.5,"y":0.5}
},
{
	"filename": "artillery_tr_0033.png",
	"frame": {"x":628,"y":124,"w":70,"h":72},
	"rotated": false,
	"trimmed": true,
	"spriteSourceSize": {"x":105,"y":81,"w":70,"h":72},
	"sourceSize": {"w":260,"h":260},
	"pivot": {"x":0.5,"y":0.5}
},
{
	"filename": "artillery_tr_0034.png",
	"frame": {"x":811,"y":282,"w":69,"h":76},
	"rotated": false,
	"trimmed": true,
	"spriteSourceSize": {"x":108,"y":75,"w":69,"h":76},
	"sourceSize": {"w":260,"h":260},
	"pivot": {"x":0.5,"y":0.5}
},
{
	"filename": "artillery_tr_0035.png",
	"frame": {"x":669,"y":354,"w":67,"h":77},
	"rotated": false,
	"trimmed": true,
	"spriteSourceSize": {"x":111,"y":72,"w":67,"h":77},
	"sourceSize": {"w":260,"h":260},
	"pivot": {"x":0.5,"y":0.5}
},
{
	"filename": "artillery_tr_0036.png",
	"frame": {"x":738,"y":354,"w":65,"h":77},
	"rotated": false,
	"trimmed": true,
	"spriteSourceSize": {"x":112,"y":72,"w":65,"h":77},
	"sourceSize": {"w":260,"h":260},
	"pivot": {"x":0.5,"y":0.5}
},
{
	"filename": "artillery_tr_0037.png",
	"frame": {"x":562,"y":271,"w":61,"h":76},
	"rotated": false,
	"trimmed": true,
	"spriteSourceSize": {"x":112,"y":72,"w":61,"h":76},
	"sourceSize": {"w":260,"h":260},
	"pivot": {"x":0.5,"y":0.5}
},
{
	"filename": "artillery_tr_0038.png",
	"frame": {"x":805,"y":360,"w":59,"h":77},
	"rotated": false,
	"trimmed": true,
	"spriteSourceSize": {"x":111,"y":71,"w":59,"h":77},
	"sourceSize": {"w":260,"h":260},
	"pivot": {"x":0.5,"y":0.5}
},
{
	"filename": "artillery_tr_0039.png",
	"frame": {"x":896,"y":439,"w":55,"h":78},
	"rotated": false,
	"trimmed": true,
	"spriteSourceSize": {"x":111,"y":70,"w":55,"h":78},
	"sourceSize": {"w":260,"h":260},
	"pivot": {"x":0.5,"y":0.5}
},
{
	"filename": "artillery_tr_0040.png",
	"frame": {"x":953,"y":439,"w":53,"h":78},
	"rotated": false,
	"trimmed": true,
	"spriteSourceSize": {"x":111,"y":70,"w":53,"h":78},
	"sourceSize": {"w":260,"h":260},
	"pivot": {"x":0.5,"y":0.5}
},
{
	"filename": "artillery_tr_0041.png",
	"frame": {"x":1,"y":493,"w":51,"h":78},
	"rotated": false,
	"trimmed": true,
	"spriteSourceSize": {"x":112,"y":70,"w":51,"h":78},
	"sourceSize": {"w":260,"h":260},
	"pivot": {"x":0.5,"y":0.5}
},
{
	"filename": "artillery_tr_0042.png",
	"frame": {"x":54,"y":493,"w":49,"h":78},
	"rotated": false,
	"trimmed": true,
	"spriteSourceSize": {"x":114,"y":70,"w":49,"h":78},
	"sourceSize": {"w":260,"h":260},
	"pivot": {"x":0.5,"y":0.5}
},
{
	"filename": "artillery_tr_0043.png",
	"frame": {"x":620,"y":352,"w":47,"h":77},
	"rotated": false,
	"trimmed": true,
	"spriteSourceSize": {"x":115,"y":71,"w":47,"h":77},
	"sourceSize": {"w":260,"h":260},
	"pivot": {"x":0.5,"y":0.5}
},
{
	"filename": "artillery_tr_0044.png",
	"frame": {"x":625,"y":274,"w":48,"h":76},
	"rotated": false,
	"trimmed": true,
	"spriteSourceSize": {"x":114,"y":72,"w":48,"h":76},
	"sourceSize": {"w":260,"h":260},
	"pivot": {"x":0.5,"y":0.5}
},
{
	"filename": "artillery_tr_0045.png",
	"frame": {"x":410,"y":190,"w":48,"h":74},
	"rotated": false,
	"trimmed": true,
	"spriteSourceSize": {"x":114,"y":74,"w":48,"h":74},
	"sourceSize": {"w":260,"h":260},
	"pivot": {"x":0.5,"y":0.5}
},
{
	"filename": "artillery_tr_0046.png",
	"frame": {"x":892,"y":131,"w":47,"h":73},
	"rotated": false,
	"trimmed": true,
	"spriteSourceSize": {"x":114,"y":75,"w":47,"h":73},
	"sourceSize": {"w":260,"h":260},
	"pivot": {"x":0.5,"y":0.5}
},
{
	"filename": "artillery_tr_0047.png",
	"frame": {"x":700,"y":126,"w":47,"h":72},
	"rotated": false,
	"trimmed": true,
	"spriteSourceSize": {"x":114,"y":76,"w":47,"h":72},
	"sourceSize": {"w":260,"h":260},
	"pivot": {"x":0.5,"y":0.5}
},
{
	"filename": "artillery_tr_0048.png",
	"frame": {"x":749,"y":126,"w":47,"h":72},
	"rotated": false,
	"trimmed": true,
	"spriteSourceSize": {"x":114,"y":77,"w":47,"h":72},
	"sourceSize": {"w":260,"h":260},
	"pivot": {"x":0.5,"y":0.5}
},
{
	"filename": "artillery_tr_0049.png",
	"frame": {"x":331,"y":113,"w":47,"h":71},
	"rotated": false,
	"trimmed": true,
	"spriteSourceSize": {"x":114,"y":78,"w":47,"h":71},
	"sourceSize": {"w":260,"h":260},
	"pivot": {"x":0.5,"y":0.5}
},
{
	"filename": "artillery_tr_0050.png",
	"frame": {"x":380,"y":117,"w":46,"h":71},
	"rotated": false,
	"trimmed": true,
	"spriteSourceSize": {"x":115,"y":78,"w":46,"h":71},
	"sourceSize": {"w":260,"h":260},
	"pivot": {"x":0.5,"y":0.5}
},
{
	"filename": "artillery_tr_0051.png",
	"frame": {"x":428,"y":117,"w":46,"h":71},
	"rotated": false,
	"trimmed": true,
	"spriteSourceSize": {"x":115,"y":78,"w":46,"h":71},
	"sourceSize": {"w":260,"h":260},
	"pivot": {"x":0.5,"y":0.5}
},
{
	"filename": "artillery_tr_0052.png",
	"frame": {"x":476,"y":120,"w":46,"h":71},
	"rotated": false,
	"trimmed": true,
	"spriteSourceSize": {"x":115,"y":78,"w":46,"h":71},
	"sourceSize": {"w":260,"h":260},
	"pivot": {"x":0.5,"y":0.5}
},
{
	"filename": "artillery_tr_0053.png",
	"frame": {"x":798,"y":126,"w":45,"h":72},
	"rotated": false,
	"trimmed": true,
	"spriteSourceSize": {"x":116,"y":77,"w":45,"h":72},
	"sourceSize": {"w":260,"h":260},
	"pivot": {"x":0.5,"y":0.5}
},
{
	"filename": "artillery_tr_0054.png",
	"frame": {"x":845,"y":131,"w":45,"h":72},
	"rotated": false,
	"trimmed": true,
	"spriteSourceSize": {"x":116,"y":77,"w":45,"h":72},
	"sourceSize": {"w":260,"h":260},
	"pivot": {"x":0.5,"y":0.5}
},
{
	"filename": "artillery_tr_0055.png",
	"frame": {"x":206,"y":185,"w":44,"h":73},
	"rotated": false,
	"trimmed": true,
	"spriteSourceSize": {"x":117,"y":76,"w":44,"h":73},
	"sourceSize": {"w":260,"h":260},
	"pivot": {"x":0.5,"y":0.5}
},
{
	"filename": "artillery_tr_0056.png",
	"frame": {"x":460,"y":193,"w":46,"h":74},
	"rotated": false,
	"trimmed": true,
	"spriteSourceSize": {"x":115,"y":74,"w":46,"h":74},
	"sourceSize": {"w":260,"h":260},
	"pivot": {"x":0.5,"y":0.5}
},
{
	"filename": "artillery_tr_0057.png",
	"frame": {"x":579,"y":195,"w":47,"h":74},
	"rotated": false,
	"trimmed": true,
	"spriteSourceSize": {"x":114,"y":74,"w":47,"h":74},
	"sourceSize": {"w":260,"h":260},
	"pivot": {"x":0.5,"y":0.5}
},
{
	"filename": "artillery_tr_0058.png",
	"frame": {"x":1,"y":258,"w":48,"h":75},
	"rotated": false,
	"trimmed": true,
	"spriteSourceSize": {"x":113,"y":73,"w":48,"h":75},
	"sourceSize": {"w":260,"h":260},
	"pivot": {"x":0.5,"y":0.5}
},
{
	"filename": "artillery_tr_0059.png",
	"frame": {"x":628,"y":198,"w":52,"h":74},
	"rotated": false,
	"trimmed": true,
	"spriteSourceSize": {"x":109,"y":74,"w":52,"h":74},
	"sourceSize": {"w":260,"h":260},
	"pivot": {"x":0.5,"y":0.5}
},
{
	"filename": "artillery_tr_0060.png",
	"frame": {"x":333,"y":265,"w":54,"h":75},
	"rotated": false,
	"trimmed": true,
	"spriteSourceSize": {"x":107,"y":73,"w":54,"h":75},
	"sourceSize": {"w":260,"h":260},
	"pivot": {"x":0.5,"y":0.5}
},
{
	"filename": "artillery_tr_0061.png",
	"frame": {"x":682,"y":200,"w":51,"h":74},
	"rotated": false,
	"trimmed": true,
	"spriteSourceSize": {"x":110,"y":74,"w":51,"h":74},
	"sourceSize": {"w":260,"h":260},
	"pivot": {"x":0.5,"y":0.5}
},
{
	"filename": "artillery_tr_0062.png",
	"frame": {"x":252,"y":185,"w":48,"h":73},
	"rotated": false,
	"trimmed": true,
	"spriteSourceSize": {"x":113,"y":75,"w":48,"h":73},
	"sourceSize": {"w":260,"h":260},
	"pivot": {"x":0.5,"y":0.5}
},
{
	"filename": "artillery_tr_0063.png",
	"frame": {"x":389,"y":266,"w":50,"h":75},
	"rotated": false,
	"trimmed": true,
	"spriteSourceSize": {"x":111,"y":75,"w":50,"h":75},
	"sourceSize": {"w":260,"h":260},
	"pivot": {"x":0.5,"y":0.5}
},
{
	"filename": "artillery_tr_0064.png",
	"frame": {"x":735,"y":200,"w":52,"h":74},
	"rotated": false,
	"trimmed": true,
	"spriteSourceSize": {"x":109,"y":76,"w":52,"h":74},
	"sourceSize": {"w":260,"h":260},
	"pivot": {"x":0.5,"y":0.5}
},
{
	"filename": "artillery_tr_0065.png",
	"frame": {"x":789,"y":200,"w":54,"h":74},
	"rotated": false,
	"trimmed": true,
	"spriteSourceSize": {"x":107,"y":77,"w":54,"h":74},
	"sourceSize": {"w":260,"h":260},
	"pivot": {"x":0.5,"y":0.5}
},
{
	"filename": "artillery_tr_0066.png",
	"frame": {"x":302,"y":186,"w":53,"h":73},
	"rotated": false,
	"trimmed": true,
	"spriteSourceSize": {"x":108,"y":78,"w":53,"h":73},
	"sourceSize": {"w":260,"h":260},
	"pivot": {"x":0.5,"y":0.5}
},
{
	"filename": "artillery_tr_0067.png",
	"frame": {"x":524,"y":122,"w":51,"h":71},
	"rotated": false,
	"trimmed": true,
	"spriteSourceSize": {"x":110,"y":79,"w":51,"h":71},
	"sourceSize": {"w":260,"h":260},
	"pivot": {"x":0.5,"y":0.5}
},
{
	"filename": "artillery_tr_0068.png",
	"frame": {"x":1,"y":112,"w":50,"h":70},
	"rotated": false,
	"trimmed": true,
	"spriteSourceSize": {"x":111,"y":79,"w":50,"h":70},
	"sourceSize": {"w":260,"h":260},
	"pivot": {"x":0.5,"y":0.5}
},
{
	"filename": "artillery_tr_0069.png",
	"frame": {"x":53,"y":113,"w":48,"h":70},
	"rotated": false,
	"trimmed": true,
	"spriteSourceSize": {"x":113,"y":79,"w":48,"h":70},
	"sourceSize": {"w":260,"h":260},
	"pivot": {"x":0.5,"y":0.5}
},
{
	"filename": "artillery_tr_0070.png",
	"frame": {"x":103,"y":113,"w":47,"h":70},
	"rotated": false,
	"trimmed": true,
	"spriteSourceSize": {"x":114,"y":79,"w":47,"h":70},
	"sourceSize": {"w":260,"h":260},
	"pivot": {"x":0.5,"y":0.5}
},
{
	"filename": "artillery_tr_0071.png",
	"frame": {"x":152,"y":113,"w":47,"h":70},
	"rotated": false,
	"trimmed": true,
	"spriteSourceSize": {"x":114,"y":79,"w":47,"h":70},
	"sourceSize": {"w":260,"h":260},
	"pivot": {"x":0.5,"y":0.5}
},
{
	"filename": "artillery_tr_0072.png",
	"frame": {"x":201,"y":113,"w":48,"h":70},
	"rotated": false,
	"trimmed": true,
	"spriteSourceSize": {"x":114,"y":78,"w":48,"h":70},
	"sourceSize": {"w":260,"h":260},
	"pivot": {"x":0.5,"y":0.5}
},
{
	"filename": "artillery_tr_0073.png",
	"frame": {"x":577,"y":122,"w":49,"h":71},
	"rotated": false,
	"trimmed": true,
	"spriteSourceSize": {"x":114,"y":77,"w":49,"h":71},
	"sourceSize": {"w":260,"h":260},
	"pivot": {"x":0.5,"y":0.5}
},
{
	"filename": "artillery_tr_0074.png",
	"frame": {"x":941,"y":132,"w":50,"h":72},
	"rotated": false,
	"trimmed": true,
	"spriteSourceSize": {"x":114,"y":76,"w":50,"h":72},
	"sourceSize": {"w":260,"h":260},
	"pivot": {"x":0.5,"y":0.5}
},
{
	"filename": "artillery_tr_0075.png",
	"frame": {"x":1,"y":184,"w":50,"h":72},
	"rotated": false,
	"trimmed": true,
	"spriteSourceSize": {"x":114,"y":76,"w":50,"h":72},
	"sourceSize": {"w":260,"h":260},
	"pivot": {"x":0.5,"y":0.5}
},
{
	"filename": "artillery_tr_0076.png",
	"frame": {"x":357,"y":190,"w":51,"h":73},
	"rotated": false,
	"trimmed": true,
	"spriteSourceSize": {"x":114,"y":75,"w":51,"h":73},
	"sourceSize": {"w":260,"h":260},
	"pivot": {"x":0.5,"y":0.5}
},
{
	"filename": "artillery_tr_0077.png",
	"frame": {"x":845,"y":206,"w":52,"h":74},
	"rotated": false,
	"trimmed": true,
	"spriteSourceSize": {"x":114,"y":74,"w":52,"h":74},
	"sourceSize": {"w":260,"h":260},
	"pivot": {"x":0.5,"y":0.5}
},
{
	"filename": "artillery_tr_0078.png",
	"frame": {"x":899,"y":206,"w":52,"h":74},
	"rotated": false,
	"trimmed": true,
	"spriteSourceSize": {"x":114,"y":74,"w":52,"h":74},
	"sourceSize": {"w":260,"h":260},
	"pivot": {"x":0.5,"y":0.5}
},
{
	"filename": "artillery_tr_0079.png",
	"frame": {"x":953,"y":206,"w":53,"h":74},
	"rotated": false,
	"trimmed": true,
	"spriteSourceSize": {"x":114,"y":73,"w":53,"h":74},
	"sourceSize": {"w":260,"h":260},
	"pivot": {"x":0.5,"y":0.5}
},
{
	"filename": "artillery_tr_0080.png",
	"frame": {"x":51,"y":259,"w":53,"h":74},
	"rotated": false,
	"trimmed": true,
	"spriteSourceSize": {"x":114,"y":73,"w":53,"h":74},
	"sourceSize": {"w":260,"h":260},
	"pivot": {"x":0.5,"y":0.5}
},
{
	"filename": "artillery_tr_0081.png",
	"frame": {"x":441,"y":269,"w":53,"h":75},
	"rotated": false,
	"trimmed": true,
	"spriteSourceSize": {"x":114,"y":73,"w":53,"h":75},
	"sourceSize": {"w":260,"h":260},
	"pivot": {"x":0.5,"y":0.5}
},
{
	"filename": "artillery_tr_0082.png",
	"frame": {"x":882,"y":282,"w":52,"h":76},
	"rotated": false,
	"trimmed": true,
	"spriteSourceSize": {"x":114,"y":72,"w":52,"h":76},
	"sourceSize": {"w":260,"h":260},
	"pivot": {"x":0.5,"y":0.5}
},
{
	"filename": "artillery_tr_0083.png",
	"frame": {"x":866,"y":360,"w":53,"h":77},
	"rotated": false,
	"trimmed": true,
	"spriteSourceSize": {"x":113,"y":71,"w":53,"h":77},
	"sourceSize": {"w":260,"h":260},
	"pivot": {"x":0.5,"y":0.5}
},
{
	"filename": "artillery_tr_0084.png",
	"frame": {"x":156,"y":496,"w":53,"h":78},
	"rotated": false,
	"trimmed": true,
	"spriteSourceSize": {"x":112,"y":70,"w":53,"h":78},
	"sourceSize": {"w":260,"h":260},
	"pivot": {"x":0.5,"y":0.5}
},
{
	"filename": "artillery_tr_0085.png",
	"frame": {"x":211,"y":497,"w":53,"h":78},
	"rotated": false,
	"trimmed": true,
	"spriteSourceSize": {"x":111,"y":70,"w":53,"h":78},
	"sourceSize": {"w":260,"h":260},
	"pivot": {"x":0.5,"y":0.5}
},
{
	"filename": "artillery_tr_0086.png",
	"frame": {"x":539,"y":511,"w":52,"h":79},
	"rotated": false,
	"trimmed": true,
	"spriteSourceSize": {"x":110,"y":69,"w":52,"h":79},
	"sourceSize": {"w":260,"h":260},
	"pivot": {"x":0.5,"y":0.5}
},
{
	"filename": "artillery_tr_0087.png",
	"frame": {"x":760,"y":519,"w":50,"h":80},
	"rotated": false,
	"trimmed": true,
	"spriteSourceSize": {"x":110,"y":69,"w":50,"h":80},
	"sourceSize": {"w":260,"h":260},
	"pivot": {"x":0.5,"y":0.5}
},
{
	"filename": "artillery_tr_0088.png",
	"frame": {"x":934,"y":519,"w":50,"h":81},
	"rotated": false,
	"trimmed": true,
	"spriteSourceSize": {"x":108,"y":68,"w":50,"h":81},
	"sourceSize": {"w":260,"h":260},
	"pivot": {"x":0.5,"y":0.5}
},
{
	"filename": "artillery_tr_0089.png",
	"frame": {"x":1,"y":573,"w":49,"h":81},
	"rotated": false,
	"trimmed": true,
	"spriteSourceSize": {"x":106,"y":68,"w":49,"h":81},
	"sourceSize": {"w":260,"h":260},
	"pivot": {"x":0.5,"y":0.5}
},
{
	"filename": "artillery_tr_0090.png",
	"frame": {"x":830,"y":601,"w":48,"h":83},
	"rotated": false,
	"trimmed": true,
	"spriteSourceSize": {"x":105,"y":67,"w":48,"h":83},
	"sourceSize": {"w":260,"h":260},
	"pivot": {"x":0.5,"y":0.5}
},
{
	"filename": "artillery_tr_0091.png",
	"frame": {"x":880,"y":601,"w":47,"h":83},
	"rotated": false,
	"trimmed": true,
	"spriteSourceSize": {"x":103,"y":67,"w":47,"h":83},
	"sourceSize": {"w":260,"h":260},
	"pivot": {"x":0.5,"y":0.5}
},
{
	"filename": "artillery_tr_0092.png",
	"frame": {"x":929,"y":602,"w":48,"h":83},
	"rotated": false,
	"trimmed": true,
	"spriteSourceSize": {"x":102,"y":67,"w":48,"h":83},
	"sourceSize": {"w":260,"h":260},
	"pivot": {"x":0.5,"y":0.5}
},
{
	"filename": "artillery_tr_0093.png",
	"frame": {"x":1,"y":656,"w":47,"h":83},
	"rotated": false,
	"trimmed": true,
	"spriteSourceSize": {"x":102,"y":68,"w":47,"h":83},
	"sourceSize": {"w":260,"h":260},
	"pivot": {"x":0.5,"y":0.5}
},
{
	"filename": "artillery_tr_0094.png",
	"frame": {"x":50,"y":656,"w":48,"h":83},
	"rotated": false,
	"trimmed": true,
	"spriteSourceSize": {"x":101,"y":68,"w":48,"h":83},
	"sourceSize": {"w":260,"h":260},
	"pivot": {"x":0.5,"y":0.5}
},
{
	"filename": "artillery_tr_0095.png",
	"frame": {"x":100,"y":659,"w":48,"h":83},
	"rotated": false,
	"trimmed": true,
	"spriteSourceSize": {"x":101,"y":68,"w":48,"h":83},
	"sourceSize": {"w":260,"h":260},
	"pivot": {"x":0.5,"y":0.5}
},
{
	"filename": "artillery_tr_0096.png",
	"frame": {"x":150,"y":660,"w":47,"h":83},
	"rotated": false,
	"trimmed": true,
	"spriteSourceSize": {"x":101,"y":68,"w":47,"h":83},
	"sourceSize": {"w":260,"h":260},
	"pivot": {"x":0.5,"y":0.5}
},
{
	"filename": "artillery_tr_0097.png",
	"frame": {"x":333,"y":585,"w":48,"h":82},
	"rotated": false,
	"trimmed": true,
	"spriteSourceSize": {"x":100,"y":69,"w":48,"h":82},
	"sourceSize": {"w":260,"h":260},
	"pivot": {"x":0.5,"y":0.5}
},
{
	"filename": "artillery_tr_0098.png",
	"frame": {"x":429,"y":588,"w":48,"h":82},
	"rotated": false,
	"trimmed": true,
	"spriteSourceSize": {"x":100,"y":69,"w":48,"h":82},
	"sourceSize": {"w":260,"h":260},
	"pivot": {"x":0.5,"y":0.5}
},
{
	"filename": "artillery_tr_0099.png",
	"frame": {"x":479,"y":588,"w":49,"h":82},
	"rotated": false,
	"trimmed": true,
	"spriteSourceSize": {"x":99,"y":69,"w":49,"h":82},
	"sourceSize": {"w":260,"h":260},
	"pivot": {"x":0.5,"y":0.5}
},
{
	"filename": "artillery_tr_0100.png",
	"frame": {"x":530,"y":592,"w":49,"h":82},
	"rotated": false,
	"trimmed": true,
	"spriteSourceSize": {"x":99,"y":69,"w":49,"h":82},
	"sourceSize": {"w":260,"h":260},
	"pivot": {"x":0.5,"y":0.5}
},
{
	"filename": "artillery_tr_0101.png",
	"frame": {"x":581,"y":594,"w":49,"h":82},
	"rotated": false,
	"trimmed": true,
	"spriteSourceSize": {"x":99,"y":69,"w":49,"h":82},
	"sourceSize": {"w":260,"h":260},
	"pivot": {"x":0.5,"y":0.5}
},
{
	"filename": "artillery_tr_0102.png",
	"frame": {"x":632,"y":594,"w":49,"h":82},
	"rotated": false,
	"trimmed": true,
	"spriteSourceSize": {"x":99,"y":69,"w":49,"h":82},
	"sourceSize": {"w":260,"h":260},
	"pivot": {"x":0.5,"y":0.5}
},
{
	"filename": "artillery_tr_0103.png",
	"frame": {"x":683,"y":594,"w":48,"h":82},
	"rotated": false,
	"trimmed": true,
	"spriteSourceSize": {"x":100,"y":69,"w":48,"h":82},
	"sourceSize": {"w":260,"h":260},
	"pivot": {"x":0.5,"y":0.5}
},
{
	"filename": "artillery_tr_0104.png",
	"frame": {"x":199,"y":665,"w":48,"h":83},
	"rotated": false,
	"trimmed": true,
	"spriteSourceSize": {"x":100,"y":68,"w":48,"h":83},
	"sourceSize": {"w":260,"h":260},
	"pivot": {"x":0.5,"y":0.5}
},
{
	"filename": "artillery_tr_0105.png",
	"frame": {"x":249,"y":665,"w":48,"h":83},
	"rotated": false,
	"trimmed": true,
	"spriteSourceSize": {"x":101,"y":68,"w":48,"h":83},
	"sourceSize": {"w":260,"h":260},
	"pivot": {"x":0.5,"y":0.5}
},
{
	"filename": "artillery_tr_0106.png",
	"frame": {"x":733,"y":601,"w":47,"h":82},
	"rotated": false,
	"trimmed": true,
	"spriteSourceSize": {"x":102,"y":69,"w":47,"h":82},
	"sourceSize": {"w":260,"h":260},
	"pivot": {"x":0.5,"y":0.5}
},
{
	"filename": "artillery_tr_0107.png",
	"frame": {"x":782,"y":601,"w":46,"h":82},
	"rotated": false,
	"trimmed": true,
	"spriteSourceSize": {"x":103,"y":69,"w":46,"h":82},
	"sourceSize": {"w":260,"h":260},
	"pivot": {"x":0.5,"y":0.5}
},
{
	"filename": "artillery_tr_0108.png",
	"frame": {"x":383,"y":585,"w":44,"h":82},
	"rotated": false,
	"trimmed": true,
	"spriteSourceSize": {"x":105,"y":69,"w":44,"h":82},
	"sourceSize": {"w":260,"h":260},
	"pivot": {"x":0.5,"y":0.5}
},
{
	"filename": "artillery_tr_0109.png",
	"frame": {"x":52,"y":573,"w":45,"h":81},
	"rotated": false,
	"trimmed": true,
	"spriteSourceSize": {"x":106,"y":69,"w":45,"h":81},
	"sourceSize": {"w":260,"h":260},
	"pivot": {"x":0.5,"y":0.5}
},
{
	"filename": "artillery_tr_0110.png",
	"frame": {"x":99,"y":573,"w":46,"h":81},
	"rotated": false,
	"trimmed": true,
	"spriteSourceSize": {"x":107,"y":69,"w":46,"h":81},
	"sourceSize": {"w":260,"h":260},
	"pivot": {"x":0.5,"y":0.5}
},
{
	"filename": "artillery_tr_0111.png",
	"frame": {"x":147,"y":576,"w":48,"h":81},
	"rotated": false,
	"trimmed": true,
	"spriteSourceSize": {"x":108,"y":69,"w":48,"h":81},
	"sourceSize": {"w":260,"h":260},
	"pivot": {"x":0.5,"y":0.5}
},
{
	"filename": "artillery_tr_0112.png",
	"frame": {"x":197,"y":577,"w":48,"h":81},
	"rotated": false,
	"trimmed": true,
	"spriteSourceSize": {"x":109,"y":69,"w":48,"h":81},
	"sourceSize": {"w":260,"h":260},
	"pivot": {"x":0.5,"y":0.5}
},
{
	"filename": "artillery_tr_0113.png",
	"frame": {"x":812,"y":519,"w":49,"h":80},
	"rotated": false,
	"trimmed": true,
	"spriteSourceSize": {"x":110,"y":69,"w":49,"h":80},
	"sourceSize": {"w":260,"h":260},
	"pivot": {"x":0.5,"y":0.5}
},
{
	"filename": "artillery_tr_0114.png",
	"frame": {"x":593,"y":513,"w":51,"h":79},
	"rotated": false,
	"trimmed": true,
	"spriteSourceSize": {"x":111,"y":70,"w":51,"h":79},
	"sourceSize": {"w":260,"h":260},
	"pivot": {"x":0.5,"y":0.5}
},
{
	"filename": "artillery_tr_0115.png",
	"frame": {"x":319,"y":502,"w":53,"h":78},
	"rotated": false,
	"trimmed": true,
	"spriteSourceSize": {"x":111,"y":70,"w":53,"h":78},
	"sourceSize": {"w":260,"h":260},
	"pivot": {"x":0.5,"y":0.5}
},
{
	"filename": "artillery_tr_0116.png",
	"frame": {"x":374,"y":505,"w":53,"h":78},
	"rotated": false,
	"trimmed": true,
	"spriteSourceSize": {"x":112,"y":70,"w":53,"h":78},
	"sourceSize": {"w":260,"h":260},
	"pivot": {"x":0.5,"y":0.5}
},
{
	"filename": "artillery_tr_0117.png",
	"frame": {"x":646,"y":513,"w":51,"h":79},
	"rotated": false,
	"trimmed": true,
	"spriteSourceSize": {"x":113,"y":69,"w":51,"h":79},
	"sourceSize": {"w":260,"h":260},
	"pivot": {"x":0.5,"y":0.5}
},
{
	"filename": "artillery_tr_0118.png",
	"frame": {"x":429,"y":508,"w":53,"h":78},
	"rotated": false,
	"trimmed": true,
	"spriteSourceSize": {"x":111,"y":70,"w":53,"h":78},
	"sourceSize": {"w":260,"h":260},
	"pivot": {"x":0.5,"y":0.5}
},
{
	"filename": "artillery_tr_0119.png",
	"frame": {"x":699,"y":513,"w":59,"h":79},
	"rotated": false,
	"trimmed": true,
	"spriteSourceSize": {"x":107,"y":71,"w":59,"h":79},
	"sourceSize": {"w":260,"h":260},
	"pivot": {"x":0.5,"y":0.5}
},
{
	"filename": "artillery_tr_0120.png",
	"frame": {"x":936,"y":282,"w":68,"h":76},
	"rotated": false,
	"trimmed": true,
	"spriteSourceSize": {"x":101,"y":74,"w":68,"h":76},
	"sourceSize": {"w":260,"h":260},
	"pivot": {"x":0.5,"y":0.5}
},
{
	"filename": "artillery_tr_0121.png",
	"frame": {"x":53,"y":185,"w":76,"h":72},
	"rotated": false,
	"trimmed": true,
	"spriteSourceSize": {"x":96,"y":79,"w":76,"h":72},
	"sourceSize": {"w":260,"h":260},
	"pivot": {"x":0.5,"y":0.5}
},
{
	"filename": "artillery_tr_0122.png",
	"frame": {"x":251,"y":113,"w":78,"h":70},
	"rotated": false,
	"trimmed": true,
	"spriteSourceSize": {"x":94,"y":81,"w":78,"h":70},
	"sourceSize": {"w":260,"h":260},
	"pivot": {"x":0.5,"y":0.5}
},
{
	"filename": "artillery_tr_0123.png",
	"frame": {"x":106,"y":260,"w":69,"h":74},
	"rotated": false,
	"trimmed": true,
	"spriteSourceSize": {"x":99,"y":77,"w":69,"h":74},
	"sourceSize": {"w":260,"h":260},
	"pivot": {"x":0.5,"y":0.5}
},
{
	"filename": "artillery_tr_0124.png",
	"frame": {"x":1,"y":335,"w":53,"h":76},
	"rotated": false,
	"trimmed": true,
	"spriteSourceSize": {"x":109,"y":72,"w":53,"h":76},
	"sourceSize": {"w":260,"h":260},
	"pivot": {"x":0.5,"y":0.5}
},
{
	"filename": "artillery_tr_0125.png",
	"frame": {"x":921,"y":360,"w":43,"h":77},
	"rotated": false,
	"trimmed": true,
	"spriteSourceSize": {"x":115,"y":70,"w":43,"h":77},
	"sourceSize": {"w":260,"h":260},
	"pivot": {"x":0.5,"y":0.5}
},
{
	"filename": "artillery_tr_0126.png",
	"frame": {"x":56,"y":335,"w":42,"h":76},
	"rotated": false,
	"trimmed": true,
	"spriteSourceSize": {"x":116,"y":70,"w":42,"h":76},
	"sourceSize": {"w":260,"h":260},
	"pivot": {"x":0.5,"y":0.5}
},
{
	"filename": "artillery_tr_0127.png",
	"frame": {"x":966,"y":360,"w":42,"h":77},
	"rotated": false,
	"trimmed": true,
	"spriteSourceSize": {"x":116,"y":70,"w":42,"h":77},
	"sourceSize": {"w":260,"h":260},
	"pivot": {"x":0.5,"y":0.5}
},
{
	"filename": "artillery_tr_0128.png",
	"frame": {"x":1,"y":413,"w":45,"h":77},
	"rotated": false,
	"trimmed": true,
	"spriteSourceSize": {"x":114,"y":70,"w":45,"h":77},
	"sourceSize": {"w":260,"h":260},
	"pivot": {"x":0.5,"y":0.5}
},
{
	"filename": "artillery_tr_0129.png",
	"frame": {"x":105,"y":493,"w":49,"h":78},
	"rotated": false,
	"trimmed": true,
	"spriteSourceSize": {"x":112,"y":70,"w":49,"h":78},
	"sourceSize": {"w":260,"h":260},
	"pivot": {"x":0.5,"y":0.5}
},
{
	"filename": "artillery_tr_0130.png",
	"frame": {"x":484,"y":508,"w":53,"h":78},
	"rotated": false,
	"trimmed": true,
	"spriteSourceSize": {"x":111,"y":70,"w":53,"h":78},
	"sourceSize": {"w":260,"h":260},
	"pivot": {"x":0.5,"y":0.5}
},
{
	"filename": "artillery_tr_0131.png",
	"frame": {"x":99,"y":414,"w":56,"h":77},
	"rotated": false,
	"trimmed": true,
	"spriteSourceSize": {"x":112,"y":70,"w":56,"h":77},
	"sourceSize": {"w":260,"h":260},
	"pivot": {"x":0.5,"y":0.5}
},
{
	"filename": "artillery_tr_0132.png",
	"frame": {"x":100,"y":336,"w":63,"h":76},
	"rotated": false,
	"trimmed": true,
	"spriteSourceSize": {"x":112,"y":70,"w":63,"h":76},
	"sourceSize": {"w":260,"h":260},
	"pivot": {"x":0.5,"y":0.5}
},
{
	"filename": "artillery_tr_0133.png",
	"frame": {"x":863,"y":519,"w":69,"h":80},
	"rotated": false,
	"trimmed": true,
	"spriteSourceSize": {"x":113,"y":64,"w":69,"h":80},
	"sourceSize": {"w":260,"h":260},
	"pivot": {"x":0.5,"y":0.5}
},
{
	"filename": "artillery_tr_0134.png",
	"frame": {"x":299,"y":669,"w":74,"h":83},
	"rotated": false,
	"trimmed": true,
	"spriteSourceSize": {"x":114,"y":59,"w":74,"h":83},
	"sourceSize": {"w":260,"h":260},
	"pivot": {"x":0.5,"y":0.5}
},
{
	"filename": "artillery_tr_0135.png",
	"frame": {"x":375,"y":672,"w":77,"h":84},
	"rotated": false,
	"trimmed": true,
	"spriteSourceSize": {"x":114,"y":56,"w":77,"h":84},
	"sourceSize": {"w":260,"h":260},
	"pivot": {"x":0.5,"y":0.5}
},
{
	"filename": "artillery_tr_0136.png",
	"frame": {"x":454,"y":676,"w":76,"h":85},
	"rotated": false,
	"trimmed": true,
	"spriteSourceSize": {"x":115,"y":53,"w":76,"h":85},
	"sourceSize": {"w":260,"h":260},
	"pivot": {"x":0.5,"y":0.5}
},
{
	"filename": "artillery_tr_0137.png",
	"frame": {"x":532,"y":678,"w":81,"h":87},
	"rotated": false,
	"trimmed": true,
	"spriteSourceSize": {"x":116,"y":50,"w":81,"h":87},
	"sourceSize": {"w":260,"h":260},
	"pivot": {"x":0.5,"y":0.5}
},
{
	"filename": "artillery_tr_0138.png",
	"frame": {"x":615,"y":678,"w":84,"h":88},
	"rotated": false,
	"trimmed": true,
	"spriteSourceSize": {"x":118,"y":49,"w":84,"h":88},
	"sourceSize": {"w":260,"h":260},
	"pivot": {"x":0.5,"y":0.5}
},
{
	"filename": "artillery_tr_0139.png",
	"frame": {"x":247,"y":582,"w":84,"h":81},
	"rotated": false,
	"trimmed": true,
	"spriteSourceSize": {"x":120,"y":56,"w":84,"h":81},
	"sourceSize": {"w":260,"h":260},
	"pivot": {"x":0.5,"y":0.5}
},
{
	"filename": "artillery_tr_0140.png",
	"frame": {"x":858,"y":60,"w":81,"h":69},
	"rotated": false,
	"trimmed": true,
	"spriteSourceSize": {"x":121,"y":68,"w":81,"h":69},
	"sourceSize": {"w":260,"h":260},
	"pivot": {"x":0.5,"y":0.5}
},
{
	"filename": "artillery_tr_0141.png",
	"frame": {"x":417,"y":56,"w":75,"h":59},
	"rotated": false,
	"trimmed": true,
	"spriteSourceSize": {"x":123,"y":79,"w":75,"h":59},
	"sourceSize": {"w":260,"h":260},
	"pivot": {"x":0.5,"y":0.5}
},
{
	"filename": "artillery_tr_0142.png",
	"frame": {"x":1,"y":52,"w":72,"h":58},
	"rotated": false,
	"trimmed": true,
	"spriteSourceSize": {"x":123,"y":80,"w":72,"h":58},
	"sourceSize": {"w":260,"h":260},
	"pivot": {"x":0.5,"y":0.5}
},
{
	"filename": "artillery_tr_0143.png",
	"frame": {"x":599,"y":1,"w":69,"h":57},
	"rotated": false,
	"trimmed": true,
	"spriteSourceSize": {"x":123,"y":81,"w":69,"h":57},
	"sourceSize": {"w":260,"h":260},
	"pivot": {"x":0.5,"y":0.5}
},
{
	"filename": "artillery_tr_0144.png",
	"frame": {"x":75,"y":53,"w":67,"h":58},
	"rotated": false,
	"trimmed": true,
	"spriteSourceSize": {"x":123,"y":80,"w":67,"h":58},
	"sourceSize": {"w":260,"h":260},
	"pivot": {"x":0.5,"y":0.5}
},
{
	"filename": "artillery_tr_0145.png",
	"frame": {"x":144,"y":53,"w":65,"h":58},
	"rotated": false,
	"trimmed": true,
	"spriteSourceSize": {"x":123,"y":80,"w":65,"h":58},
	"sourceSize": {"w":260,"h":260},
	"pivot": {"x":0.5,"y":0.5}
},
{
	"filename": "artillery_tr_0146.png",
	"frame": {"x":211,"y":53,"w":66,"h":58},
	"rotated": false,
	"trimmed": true,
	"spriteSourceSize": {"x":123,"y":80,"w":66,"h":58},
	"sourceSize": {"w":260,"h":260},
	"pivot": {"x":0.5,"y":0.5}
},
{
	"filename": "artillery_tr_0147.png",
	"frame": {"x":670,"y":1,"w":67,"h":57},
	"rotated": false,
	"trimmed": true,
	"spriteSourceSize": {"x":123,"y":81,"w":67,"h":57},
	"sourceSize": {"w":260,"h":260},
	"pivot": {"x":0.5,"y":0.5}
},
{
	"filename": "artillery_tr_0148.png",
	"frame": {"x":739,"y":1,"w":67,"h":57},
	"rotated": false,
	"trimmed": true,
	"spriteSourceSize": {"x":123,"y":81,"w":67,"h":57},
	"sourceSize": {"w":260,"h":260},
	"pivot": {"x":0.5,"y":0.5}
},
{
	"filename": "artillery_tr_0149.png",
	"frame": {"x":808,"y":1,"w":67,"h":57},
	"rotated": false,
	"trimmed": true,
	"spriteSourceSize": {"x":123,"y":81,"w":67,"h":57},
	"sourceSize": {"w":260,"h":260},
	"pivot": {"x":0.5,"y":0.5}
},
{
	"filename": "artillery_tr_0150.png",
	"frame": {"x":877,"y":1,"w":67,"h":57},
	"rotated": false,
	"trimmed": true,
	"spriteSourceSize": {"x":123,"y":81,"w":67,"h":57},
	"sourceSize": {"w":260,"h":260},
	"pivot": {"x":0.5,"y":0.5}
},
{
	"filename": "artillery_tr_0151.png",
	"frame": {"x":279,"y":53,"w":67,"h":58},
	"rotated": false,
	"trimmed": true,
	"spriteSourceSize": {"x":123,"y":80,"w":67,"h":58},
	"sourceSize": {"w":260,"h":260},
	"pivot": {"x":0.5,"y":0.5}
},
{
	"filename": "artillery_tr_0152.png",
	"frame": {"x":946,"y":1,"w":67,"h":57},
	"rotated": false,
	"trimmed": true,
	"spriteSourceSize": {"x":123,"y":81,"w":67,"h":57},
	"sourceSize": {"w":260,"h":260},
	"pivot": {"x":0.5,"y":0.5}
},
{
	"filename": "artillery_tr_0153.png",
	"frame": {"x":348,"y":53,"w":67,"h":58},
	"rotated": false,
	"trimmed": true,
	"spriteSourceSize": {"x":123,"y":80,"w":67,"h":58},
	"sourceSize": {"w":260,"h":260},
	"pivot": {"x":0.5,"y":0.5}
},
{
	"filename": "artillery_tr_0154.png",
	"frame": {"x":494,"y":58,"w":66,"h":60},
	"rotated": false,
	"trimmed": true,
	"spriteSourceSize": {"x":123,"y":78,"w":66,"h":60},
	"sourceSize": {"w":260,"h":260},
	"pivot": {"x":0.5,"y":0.5}
},
{
	"filename": "artillery_tr_0155.png",
	"frame": {"x":643,"y":60,"w":67,"h":62},
	"rotated": false,
	"trimmed": true,
	"spriteSourceSize": {"x":123,"y":76,"w":67,"h":62},
	"sourceSize": {"w":260,"h":260},
	"pivot": {"x":0.5,"y":0.5}
},
{
	"filename": "artillery_tr_0156.png",
	"frame": {"x":712,"y":60,"w":69,"h":64},
	"rotated": false,
	"trimmed": true,
	"spriteSourceSize": {"x":121,"y":74,"w":69,"h":64},
	"sourceSize": {"w":260,"h":260},
	"pivot": {"x":0.5,"y":0.5}
},
{
	"filename": "artillery_tr_0157.png",
	"frame": {"x":783,"y":60,"w":73,"h":64},
	"rotated": false,
	"trimmed": true,
	"spriteSourceSize": {"x":116,"y":74,"w":73,"h":64},
	"sourceSize": {"w":260,"h":260},
	"pivot": {"x":0.5,"y":0.5}
},
{
	"filename": "artillery_tr_0158.png",
	"frame": {"x":562,"y":60,"w":79,"h":60},
	"rotated": false,
	"trimmed": true,
	"spriteSourceSize": {"x":114,"y":78,"w":79,"h":60},
	"sourceSize": {"w":260,"h":260},
	"pivot": {"x":0.5,"y":0.5}
},
{
	"filename": "artillery_tr_0159.png",
	"frame": {"x":514,"y":1,"w":83,"h":55},
	"rotated": false,
	"trimmed": true,
	"spriteSourceSize": {"x":116,"y":82,"w":83,"h":55},
	"sourceSize": {"w":260,"h":260},
	"pivot": {"x":0.5,"y":0.5}
},
{
	"filename": "artillery_tr_0160.png",
	"frame": {"x":428,"y":1,"w":84,"h":53},
	"rotated": false,
	"trimmed": true,
	"spriteSourceSize": {"x":117,"y":83,"w":84,"h":53},
	"sourceSize": {"w":260,"h":260},
	"pivot": {"x":0.5,"y":0.5}
},
{
	"filename": "artillery_tr_0161.png",
	"frame": {"x":86,"y":1,"w":83,"h":50},
	"rotated": false,
	"trimmed": true,
	"spriteSourceSize": {"x":118,"y":85,"w":83,"h":50},
	"sourceSize": {"w":260,"h":260},
	"pivot": {"x":0.5,"y":0.5}
},
{
	"filename": "artillery_tr_0162.png",
	"frame": {"x":171,"y":1,"w":82,"h":50},
	"rotated": false,
	"trimmed": true,
	"spriteSourceSize": {"x":118,"y":85,"w":82,"h":50},
	"sourceSize": {"w":260,"h":260},
	"pivot": {"x":0.5,"y":0.5}
},
{
	"filename": "artillery_tr_0163.png",
	"frame": {"x":1,"y":1,"w":83,"h":49},
	"rotated": false,
	"trimmed": true,
	"spriteSourceSize": {"x":118,"y":86,"w":83,"h":49},
	"sourceSize": {"w":260,"h":260},
	"pivot": {"x":0.5,"y":0.5}
},
{
	"filename": "artillery_tr_0164.png",
	"frame": {"x":255,"y":1,"w":84,"h":50},
	"rotated": false,
	"trimmed": true,
	"spriteSourceSize": {"x":117,"y":86,"w":84,"h":50},
	"sourceSize": {"w":260,"h":260},
	"pivot": {"x":0.5,"y":0.5}
},
{
	"filename": "artillery_tr_0165.png",
	"frame": {"x":341,"y":1,"w":85,"h":50},
	"rotated": false,
	"trimmed": true,
	"spriteSourceSize": {"x":116,"y":86,"w":85,"h":50},
	"sourceSize": {"w":260,"h":260},
	"pivot": {"x":0.5,"y":0.5}
}],
"meta": {
	"app": "http://www.codeandweb.com/texturepacker",
	"version": "1.0",
	"image": "artillery_tr.png",
	"format": "RGBA8888",
	"size": {"w":1024,"h":1024},
	"scale": "1",
	"smartupdate": "$TexturePacker:SmartUpdate:b0da40fbd54fe15275cb74906ed16dd9:f9bf3b4ff11b382c03d3f2b04f51856a:b33b3cb22bd6c0c4d95d27863e444ef3$"
}
}
