{"frames": [

{
	"filename": "gunner_bl_0000.png",
	"frame": {"x":629,"y":301,"w":52,"h":76},
	"rotated": false,
	"trimmed": true,
	"spriteSourceSize": {"x":96,"y":74,"w":52,"h":76},
	"sourceSize": {"w":260,"h":260},
	"pivot": {"x":0.5,"y":0.5}
},
{
	"filename": "gunner_bl_0001.png",
	"frame": {"x":683,"y":301,"w":53,"h":76},
	"rotated": false,
	"trimmed": true,
	"spriteSourceSize": {"x":94,"y":74,"w":53,"h":76},
	"sourceSize": {"w":260,"h":260},
	"pivot": {"x":0.5,"y":0.5}
},
{
	"filename": "gunner_bl_0002.png",
	"frame": {"x":966,"y":1,"w":53,"h":74},
	"rotated": false,
	"trimmed": true,
	"spriteSourceSize": {"x":93,"y":74,"w":53,"h":74},
	"sourceSize": {"w":260,"h":260},
	"pivot": {"x":0.5,"y":0.5}
},
{
	"filename": "gunner_bl_0003.png",
	"frame": {"x":959,"y":77,"w":53,"h":74},
	"rotated": false,
	"trimmed": true,
	"spriteSourceSize": {"x":92,"y":74,"w":53,"h":74},
	"sourceSize": {"w":260,"h":260},
	"pivot": {"x":0.5,"y":0.5}
},
{
	"filename": "gunner_bl_0004.png",
	"frame": {"x":69,"y":205,"w":54,"h":75},
	"rotated": false,
	"trimmed": true,
	"spriteSourceSize": {"x":90,"y":74,"w":54,"h":75},
	"sourceSize": {"w":260,"h":260},
	"pivot": {"x":0.5,"y":0.5}
},
{
	"filename": "gunner_bl_0005.png",
	"frame": {"x":73,"y":129,"w":54,"h":74},
	"rotated": false,
	"trimmed": true,
	"spriteSourceSize": {"x":89,"y":75,"w":54,"h":74},
	"sourceSize": {"w":260,"h":260},
	"pivot": {"x":0.5,"y":0.5}
},
{
	"filename": "gunner_bl_0006.png",
	"frame": {"x":129,"y":130,"w":54,"h":74},
	"rotated": false,
	"trimmed": true,
	"spriteSourceSize": {"x":89,"y":75,"w":54,"h":74},
	"sourceSize": {"w":260,"h":260},
	"pivot": {"x":0.5,"y":0.5}
},
{
	"filename": "gunner_bl_0007.png",
	"frame": {"x":185,"y":132,"w":55,"h":74},
	"rotated": false,
	"trimmed": true,
	"spriteSourceSize": {"x":88,"y":75,"w":55,"h":74},
	"sourceSize": {"w":260,"h":260},
	"pivot": {"x":0.5,"y":0.5}
},
{
	"filename": "gunner_bl_0008.png",
	"frame": {"x":242,"y":132,"w":55,"h":74},
	"rotated": false,
	"trimmed": true,
	"spriteSourceSize": {"x":88,"y":75,"w":55,"h":74},
	"sourceSize": {"w":260,"h":260},
	"pivot": {"x":0.5,"y":0.5}
},
{
	"filename": "gunner_bl_0009.png",
	"frame": {"x":125,"y":206,"w":55,"h":75},
	"rotated": false,
	"trimmed": true,
	"spriteSourceSize": {"x":88,"y":75,"w":55,"h":75},
	"sourceSize": {"w":260,"h":260},
	"pivot": {"x":0.5,"y":0.5}
},
{
	"filename": "gunner_bl_0010.png",
	"frame": {"x":392,"y":212,"w":55,"h":75},
	"rotated": false,
	"trimmed": true,
	"spriteSourceSize": {"x":88,"y":75,"w":55,"h":75},
	"sourceSize": {"w":260,"h":260},
	"pivot": {"x":0.5,"y":0.5}
},
{
	"filename": "gunner_bl_0011.png",
	"frame": {"x":494,"y":223,"w":55,"h":75},
	"rotated": false,
	"trimmed": true,
	"spriteSourceSize": {"x":88,"y":75,"w":55,"h":75},
	"sourceSize": {"w":260,"h":260},
	"pivot": {"x":0.5,"y":0.5}
},
{
	"filename": "gunner_bl_0012.png",
	"frame": {"x":738,"y":301,"w":55,"h":76},
	"rotated": false,
	"trimmed": true,
	"spriteSourceSize": {"x":88,"y":75,"w":55,"h":76},
	"sourceSize": {"w":260,"h":260},
	"pivot": {"x":0.5,"y":0.5}
},
{
	"filename": "gunner_bl_0013.png",
	"frame": {"x":551,"y":223,"w":55,"h":75},
	"rotated": false,
	"trimmed": true,
	"spriteSourceSize": {"x":88,"y":75,"w":55,"h":75},
	"sourceSize": {"w":260,"h":260},
	"pivot": {"x":0.5,"y":0.5}
},
{
	"filename": "gunner_bl_0014.png",
	"frame": {"x":795,"y":301,"w":55,"h":76},
	"rotated": false,
	"trimmed": true,
	"spriteSourceSize": {"x":88,"y":75,"w":55,"h":76},
	"sourceSize": {"w":260,"h":260},
	"pivot": {"x":0.5,"y":0.5}
},
{
	"filename": "gunner_bl_0015.png",
	"frame": {"x":608,"y":223,"w":55,"h":75},
	"rotated": false,
	"trimmed": true,
	"spriteSourceSize": {"x":88,"y":75,"w":55,"h":75},
	"sourceSize": {"w":260,"h":260},
	"pivot": {"x":0.5,"y":0.5}
},
{
	"filename": "gunner_bl_0016.png",
	"frame": {"x":665,"y":224,"w":55,"h":75},
	"rotated": false,
	"trimmed": true,
	"spriteSourceSize": {"x":88,"y":75,"w":55,"h":75},
	"sourceSize": {"w":260,"h":260},
	"pivot": {"x":0.5,"y":0.5}
},
{
	"filename": "gunner_bl_0017.png",
	"frame": {"x":299,"y":132,"w":55,"h":74},
	"rotated": false,
	"trimmed": true,
	"spriteSourceSize": {"x":88,"y":75,"w":55,"h":74},
	"sourceSize": {"w":260,"h":260},
	"pivot": {"x":0.5,"y":0.5}
},
{
	"filename": "gunner_bl_0018.png",
	"frame": {"x":852,"y":302,"w":52,"h":76},
	"rotated": false,
	"trimmed": true,
	"spriteSourceSize": {"x":96,"y":74,"w":52,"h":76},
	"sourceSize": {"w":260,"h":260},
	"pivot": {"x":0.5,"y":0.5}
},
{
	"filename": "gunner_bl_0019.png",
	"frame": {"x":244,"y":439,"w":49,"h":78},
	"rotated": false,
	"trimmed": true,
	"spriteSourceSize": {"x":100,"y":74,"w":49,"h":78},
	"sourceSize": {"w":260,"h":260},
	"pivot": {"x":0.5,"y":0.5}
},
{
	"filename": "gunner_bl_0020.png",
	"frame": {"x":396,"y":366,"w":44,"h":78},
	"rotated": false,
	"trimmed": true,
	"spriteSourceSize": {"x":105,"y":74,"w":44,"h":78},
	"sourceSize": {"w":260,"h":260},
	"pivot": {"x":0.5,"y":0.5}
},
{
	"filename": "gunner_bl_0021.png",
	"frame": {"x":906,"y":302,"w":42,"h":78},
	"rotated": false,
	"trimmed": true,
	"spriteSourceSize": {"x":108,"y":74,"w":42,"h":78},
	"sourceSize": {"w":260,"h":260},
	"pivot": {"x":0.5,"y":0.5}
},
{
	"filename": "gunner_bl_0022.png",
	"frame": {"x":449,"y":212,"w":43,"h":77},
	"rotated": false,
	"trimmed": true,
	"spriteSourceSize": {"x":107,"y":75,"w":43,"h":77},
	"sourceSize": {"w":260,"h":260},
	"pivot": {"x":0.5,"y":0.5}
},
{
	"filename": "gunner_bl_0023.png",
	"frame": {"x":343,"y":284,"w":42,"h":77},
	"rotated": false,
	"trimmed": true,
	"spriteSourceSize": {"x":109,"y":75,"w":42,"h":77},
	"sourceSize": {"w":260,"h":260},
	"pivot": {"x":0.5,"y":0.5}
},
{
	"filename": "gunner_bl_0024.png",
	"frame": {"x":446,"y":291,"w":43,"h":77},
	"rotated": false,
	"trimmed": true,
	"spriteSourceSize": {"x":109,"y":75,"w":43,"h":77},
	"sourceSize": {"w":260,"h":260},
	"pivot": {"x":0.5,"y":0.5}
},
{
	"filename": "gunner_bl_0025.png",
	"frame": {"x":295,"y":361,"w":46,"h":77},
	"rotated": false,
	"trimmed": true,
	"spriteSourceSize": {"x":107,"y":75,"w":46,"h":77},
	"sourceSize": {"w":260,"h":260},
	"pivot": {"x":0.5,"y":0.5}
},
{
	"filename": "gunner_bl_0026.png",
	"frame": {"x":895,"y":382,"w":53,"h":77},
	"rotated": false,
	"trimmed": true,
	"spriteSourceSize": {"x":102,"y":75,"w":53,"h":77},
	"sourceSize": {"w":260,"h":260},
	"pivot": {"x":0.5,"y":0.5}
},
{
	"filename": "gunner_bl_0027.png",
	"frame": {"x":950,"y":384,"w":57,"h":77},
	"rotated": false,
	"trimmed": true,
	"spriteSourceSize": {"x":98,"y":75,"w":57,"h":77},
	"sourceSize": {"w":260,"h":260},
	"pivot": {"x":0.5,"y":0.5}
},
{
	"filename": "gunner_bl_0028.png",
	"frame": {"x":950,"y":306,"w":62,"h":76},
	"rotated": false,
	"trimmed": true,
	"spriteSourceSize": {"x":92,"y":74,"w":62,"h":76},
	"sourceSize": {"w":260,"h":260},
	"pivot": {"x":0.5,"y":0.5}
},
{
	"filename": "gunner_bl_0029.png",
	"frame": {"x":356,"y":132,"w":67,"h":74},
	"rotated": false,
	"trimmed": true,
	"spriteSourceSize": {"x":86,"y":74,"w":67,"h":74},
	"sourceSize": {"w":260,"h":260},
	"pivot": {"x":0.5,"y":0.5}
},
{
	"filename": "gunner_bl_0030.png",
	"frame": {"x":425,"y":136,"w":73,"h":74},
	"rotated": false,
	"trimmed": true,
	"spriteSourceSize": {"x":79,"y":74,"w":73,"h":74},
	"sourceSize": {"w":260,"h":260},
	"pivot": {"x":0.5,"y":0.5}
},
{
	"filename": "gunner_bl_0031.png",
	"frame": {"x":722,"y":224,"w":79,"h":75},
	"rotated": false,
	"trimmed": true,
	"spriteSourceSize": {"x":74,"y":73,"w":79,"h":75},
	"sourceSize": {"w":260,"h":260},
	"pivot": {"x":0.5,"y":0.5}
},
{
	"filename": "gunner_bl_0032.png",
	"frame": {"x":803,"y":224,"w":81,"h":75},
	"rotated": false,
	"trimmed": true,
	"spriteSourceSize": {"x":71,"y":73,"w":81,"h":75},
	"sourceSize": {"w":260,"h":260},
	"pivot": {"x":0.5,"y":0.5}
},
{
	"filename": "gunner_bl_0033.png",
	"frame": {"x":170,"y":284,"w":84,"h":75},
	"rotated": false,
	"trimmed": true,
	"spriteSourceSize": {"x":69,"y":73,"w":84,"h":75},
	"sourceSize": {"w":260,"h":260},
	"pivot": {"x":0.5,"y":0.5}
},
{
	"filename": "gunner_bl_0034.png",
	"frame": {"x":500,"y":147,"w":87,"h":74},
	"rotated": false,
	"trimmed": true,
	"spriteSourceSize": {"x":68,"y":74,"w":87,"h":74},
	"sourceSize": {"w":260,"h":260},
	"pivot": {"x":0.5,"y":0.5}
},
{
	"filename": "gunner_bl_0035.png",
	"frame": {"x":589,"y":147,"w":88,"h":74},
	"rotated": false,
	"trimmed": true,
	"spriteSourceSize": {"x":67,"y":74,"w":88,"h":74},
	"sourceSize": {"w":260,"h":260},
	"pivot": {"x":0.5,"y":0.5}
},
{
	"filename": "gunner_bl_0036.png",
	"frame": {"x":679,"y":148,"w":81,"h":74},
	"rotated": false,
	"trimmed": true,
	"spriteSourceSize": {"x":74,"y":74,"w":81,"h":74},
	"sourceSize": {"w":260,"h":260},
	"pivot": {"x":0.5,"y":0.5}
},
{
	"filename": "gunner_bl_0037.png",
	"frame": {"x":762,"y":148,"w":69,"h":74},
	"rotated": false,
	"trimmed": true,
	"spriteSourceSize": {"x":86,"y":74,"w":69,"h":74},
	"sourceSize": {"w":260,"h":260},
	"pivot": {"x":0.5,"y":0.5}
},
{
	"filename": "gunner_bl_0038.png",
	"frame": {"x":833,"y":148,"w":69,"h":74},
	"rotated": false,
	"trimmed": true,
	"spriteSourceSize": {"x":85,"y":74,"w":69,"h":74},
	"sourceSize": {"w":260,"h":260},
	"pivot": {"x":0.5,"y":0.5}
},
{
	"filename": "gunner_bl_0039.png",
	"frame": {"x":1,"y":204,"w":66,"h":74},
	"rotated": false,
	"trimmed": true,
	"spriteSourceSize": {"x":87,"y":74,"w":66,"h":74},
	"sourceSize": {"w":260,"h":260},
	"pivot": {"x":0.5,"y":0.5}
},
{
	"filename": "gunner_bl_0040.png",
	"frame": {"x":886,"y":225,"w":62,"h":75},
	"rotated": false,
	"trimmed": true,
	"spriteSourceSize": {"x":89,"y":73,"w":62,"h":75},
	"sourceSize": {"w":260,"h":260},
	"pivot": {"x":0.5,"y":0.5}
},
{
	"filename": "gunner_bl_0041.png",
	"frame": {"x":950,"y":229,"w":57,"h":75},
	"rotated": false,
	"trimmed": true,
	"spriteSourceSize": {"x":92,"y":73,"w":57,"h":75},
	"sourceSize": {"w":260,"h":260},
	"pivot": {"x":0.5,"y":0.5}
},
{
	"filename": "gunner_bl_0042.png",
	"frame": {"x":959,"y":153,"w":54,"h":74},
	"rotated": false,
	"trimmed": true,
	"spriteSourceSize": {"x":93,"y":74,"w":54,"h":74},
	"sourceSize": {"w":260,"h":260},
	"pivot": {"x":0.5,"y":0.5}
},
{
	"filename": "gunner_bl_0043.png",
	"frame": {"x":1,"y":280,"w":54,"h":75},
	"rotated": false,
	"trimmed": true,
	"spriteSourceSize": {"x":94,"y":73,"w":54,"h":75},
	"sourceSize": {"w":260,"h":260},
	"pivot": {"x":0.5,"y":0.5}
},
{
	"filename": "gunner_bl_0044.png",
	"frame": {"x":904,"y":148,"w":53,"h":75},
	"rotated": false,
	"trimmed": true,
	"spriteSourceSize": {"x":95,"y":73,"w":53,"h":75},
	"sourceSize": {"w":260,"h":260},
	"pivot": {"x":0.5,"y":0.5}
},
{
	"filename": "gunner_bl_0045.png",
	"frame": {"x":1,"y":357,"w":52,"h":76},
	"rotated": false,
	"trimmed": true,
	"spriteSourceSize": {"x":96,"y":74,"w":52,"h":76},
	"sourceSize": {"w":260,"h":260},
	"pivot": {"x":0.5,"y":0.5}
},
{
	"filename": "gunner_bl_0046.png",
	"frame": {"x":57,"y":282,"w":54,"h":75},
	"rotated": false,
	"trimmed": true,
	"spriteSourceSize": {"x":93,"y":74,"w":54,"h":75},
	"sourceSize": {"w":260,"h":260},
	"pivot": {"x":0.5,"y":0.5}
},
{
	"filename": "gunner_bl_0047.png",
	"frame": {"x":134,"y":517,"w":57,"h":79},
	"rotated": false,
	"trimmed": true,
	"spriteSourceSize": {"x":93,"y":74,"w":57,"h":79},
	"sourceSize": {"w":260,"h":260},
	"pivot": {"x":0.5,"y":0.5}
},
{
	"filename": "gunner_bl_0048.png",
	"frame": {"x":360,"y":525,"w":57,"h":81},
	"rotated": false,
	"trimmed": true,
	"spriteSourceSize": {"x":95,"y":75,"w":57,"h":81},
	"sourceSize": {"w":260,"h":260},
	"pivot": {"x":0.5,"y":0.5}
},
{
	"filename": "gunner_bl_0049.png",
	"frame": {"x":299,"y":523,"w":59,"h":80},
	"rotated": false,
	"trimmed": true,
	"spriteSourceSize": {"x":96,"y":75,"w":59,"h":80},
	"sourceSize": {"w":260,"h":260},
	"pivot": {"x":0.5,"y":0.5}
},
{
	"filename": "gunner_bl_0050.png",
	"frame": {"x":655,"y":457,"w":63,"h":78},
	"rotated": false,
	"trimmed": true,
	"spriteSourceSize": {"x":96,"y":75,"w":63,"h":78},
	"sourceSize": {"w":260,"h":260},
	"pivot": {"x":0.5,"y":0.5}
},
{
	"filename": "gunner_bl_0051.png",
	"frame": {"x":295,"y":444,"w":64,"h":77},
	"rotated": false,
	"trimmed": true,
	"spriteSourceSize": {"x":96,"y":75,"w":64,"h":77},
	"sourceSize": {"w":260,"h":260},
	"pivot": {"x":0.5,"y":0.5}
},
{
	"filename": "gunner_bl_0052.png",
	"frame": {"x":361,"y":446,"w":63,"h":77},
	"rotated": false,
	"trimmed": true,
	"spriteSourceSize": {"x":96,"y":75,"w":63,"h":77},
	"sourceSize": {"w":260,"h":260},
	"pivot": {"x":0.5,"y":0.5}
},
{
	"filename": "gunner_bl_0053.png",
	"frame": {"x":170,"y":361,"w":62,"h":76},
	"rotated": false,
	"trimmed": true,
	"spriteSourceSize": {"x":96,"y":75,"w":62,"h":76},
	"sourceSize": {"w":260,"h":260},
	"pivot": {"x":0.5,"y":0.5}
},
{
	"filename": "gunner_bl_0054.png",
	"frame": {"x":426,"y":455,"w":61,"h":77},
	"rotated": false,
	"trimmed": true,
	"spriteSourceSize": {"x":96,"y":74,"w":61,"h":77},
	"sourceSize": {"w":260,"h":260},
	"pivot": {"x":0.5,"y":0.5}
},
{
	"filename": "gunner_bl_0055.png",
	"frame": {"x":109,"y":360,"w":59,"h":76},
	"rotated": false,
	"trimmed": true,
	"spriteSourceSize": {"x":96,"y":74,"w":59,"h":76},
	"sourceSize": {"w":260,"h":260},
	"pivot": {"x":0.5,"y":0.5}
},
{
	"filename": "gunner_bl_0056.png",
	"frame": {"x":234,"y":361,"w":59,"h":76},
	"rotated": false,
	"trimmed": true,
	"spriteSourceSize": {"x":95,"y":74,"w":59,"h":76},
	"sourceSize": {"w":260,"h":260},
	"pivot": {"x":0.5,"y":0.5}
},
{
	"filename": "gunner_bl_0057.png",
	"frame": {"x":108,"y":438,"w":57,"h":77},
	"rotated": false,
	"trimmed": true,
	"spriteSourceSize": {"x":95,"y":73,"w":57,"h":77},
	"sourceSize": {"w":260,"h":260},
	"pivot": {"x":0.5,"y":0.5}
},
{
	"filename": "gunner_bl_0058.png",
	"frame": {"x":52,"y":437,"w":54,"h":77},
	"rotated": false,
	"trimmed": true,
	"spriteSourceSize": {"x":96,"y":73,"w":54,"h":77},
	"sourceSize": {"w":260,"h":260},
	"pivot": {"x":0.5,"y":0.5}
},
{
	"filename": "gunner_bl_0059.png",
	"frame": {"x":489,"y":455,"w":53,"h":77},
	"rotated": false,
	"trimmed": true,
	"spriteSourceSize": {"x":96,"y":73,"w":53,"h":77},
	"sourceSize": {"w":260,"h":260},
	"pivot": {"x":0.5,"y":0.5}
},
{
	"filename": "gunner_bl_0060.png",
	"frame": {"x":55,"y":359,"w":52,"h":76},
	"rotated": false,
	"trimmed": true,
	"spriteSourceSize": {"x":96,"y":74,"w":52,"h":76},
	"sourceSize": {"w":260,"h":260},
	"pivot": {"x":0.5,"y":0.5}
},
{
	"filename": "gunner_bl_0061.png",
	"frame": {"x":343,"y":366,"w":51,"h":76},
	"rotated": false,
	"trimmed": true,
	"spriteSourceSize": {"x":96,"y":74,"w":51,"h":76},
	"sourceSize": {"w":260,"h":260},
	"pivot": {"x":0.5,"y":0.5}
},
{
	"filename": "gunner_bl_0062.png",
	"frame": {"x":193,"y":519,"w":51,"h":79},
	"rotated": false,
	"trimmed": true,
	"spriteSourceSize": {"x":96,"y":74,"w":51,"h":79},
	"sourceSize": {"w":260,"h":260},
	"pivot": {"x":0.5,"y":0.5}
},
{
	"filename": "gunner_bl_0063.png",
	"frame": {"x":1,"y":435,"w":49,"h":77},
	"rotated": false,
	"trimmed": true,
	"spriteSourceSize": {"x":97,"y":75,"w":49,"h":77},
	"sourceSize": {"w":260,"h":260},
	"pivot": {"x":0.5,"y":0.5}
},
{
	"filename": "gunner_bl_0064.png",
	"frame": {"x":720,"y":457,"w":49,"h":78},
	"rotated": false,
	"trimmed": true,
	"spriteSourceSize": {"x":97,"y":76,"w":49,"h":78},
	"sourceSize": {"w":260,"h":260},
	"pivot": {"x":0.5,"y":0.5}
},
{
	"filename": "gunner_bl_0065.png",
	"frame": {"x":771,"y":457,"w":49,"h":78},
	"rotated": false,
	"trimmed": true,
	"spriteSourceSize": {"x":97,"y":76,"w":49,"h":78},
	"sourceSize": {"w":260,"h":260},
	"pivot": {"x":0.5,"y":0.5}
},
{
	"filename": "gunner_bl_0066.png",
	"frame": {"x":822,"y":458,"w":48,"h":78},
	"rotated": false,
	"trimmed": true,
	"spriteSourceSize": {"x":97,"y":77,"w":48,"h":78},
	"sourceSize": {"w":260,"h":260},
	"pivot": {"x":0.5,"y":0.5}
},
{
	"filename": "gunner_bl_0067.png",
	"frame": {"x":544,"y":457,"w":52,"h":77},
	"rotated": false,
	"trimmed": true,
	"spriteSourceSize": {"x":93,"y":78,"w":52,"h":77},
	"sourceSize": {"w":260,"h":260},
	"pivot": {"x":0.5,"y":0.5}
},
{
	"filename": "gunner_bl_0068.png",
	"frame": {"x":113,"y":283,"w":55,"h":75},
	"rotated": false,
	"trimmed": true,
	"spriteSourceSize": {"x":90,"y":78,"w":55,"h":75},
	"sourceSize": {"w":260,"h":260},
	"pivot": {"x":0.5,"y":0.5}
},
{
	"filename": "gunner_bl_0069.png",
	"frame": {"x":150,"y":56,"w":59,"h":72},
	"rotated": false,
	"trimmed": true,
	"spriteSourceSize": {"x":86,"y":79,"w":59,"h":72},
	"sourceSize": {"w":260,"h":260},
	"pivot": {"x":0.5,"y":0.5}
},
{
	"filename": "gunner_bl_0070.png",
	"frame": {"x":689,"y":1,"w":62,"h":70},
	"rotated": false,
	"trimmed": true,
	"spriteSourceSize": {"x":83,"y":79,"w":62,"h":70},
	"sourceSize": {"w":260,"h":260},
	"pivot": {"x":0.5,"y":0.5}
},
{
	"filename": "gunner_bl_0071.png",
	"frame": {"x":753,"y":1,"w":64,"h":70},
	"rotated": false,
	"trimmed": true,
	"spriteSourceSize": {"x":81,"y":79,"w":64,"h":70},
	"sourceSize": {"w":260,"h":260},
	"pivot": {"x":0.5,"y":0.5}
},
{
	"filename": "gunner_bl_0072.png",
	"frame": {"x":211,"y":58,"w":66,"h":72},
	"rotated": false,
	"trimmed": true,
	"spriteSourceSize": {"x":79,"y":78,"w":66,"h":72},
	"sourceSize": {"w":260,"h":260},
	"pivot": {"x":0.5,"y":0.5}
},
{
	"filename": "gunner_bl_0073.png",
	"frame": {"x":1,"y":56,"w":68,"h":71},
	"rotated": false,
	"trimmed": true,
	"spriteSourceSize": {"x":77,"y":78,"w":68,"h":71},
	"sourceSize": {"w":260,"h":260},
	"pivot": {"x":0.5,"y":0.5}
},
{
	"filename": "gunner_bl_0074.png",
	"frame": {"x":819,"y":1,"w":68,"h":70},
	"rotated": false,
	"trimmed": true,
	"spriteSourceSize": {"x":76,"y":78,"w":68,"h":70},
	"sourceSize": {"w":260,"h":260},
	"pivot": {"x":0.5,"y":0.5}
},
{
	"filename": "gunner_bl_0075.png",
	"frame": {"x":540,"y":1,"w":71,"h":69},
	"rotated": false,
	"trimmed": true,
	"spriteSourceSize": {"x":75,"y":79,"w":71,"h":69},
	"sourceSize": {"w":260,"h":260},
	"pivot": {"x":0.5,"y":0.5}
},
{
	"filename": "gunner_bl_0076.png",
	"frame": {"x":613,"y":1,"w":74,"h":69},
	"rotated": false,
	"trimmed": true,
	"spriteSourceSize": {"x":74,"y":79,"w":74,"h":69},
	"sourceSize": {"w":260,"h":260},
	"pivot": {"x":0.5,"y":0.5}
},
{
	"filename": "gunner_bl_0077.png",
	"frame": {"x":889,"y":1,"w":75,"h":70},
	"rotated": false,
	"trimmed": true,
	"spriteSourceSize": {"x":73,"y":78,"w":75,"h":70},
	"sourceSize": {"w":260,"h":260},
	"pivot": {"x":0.5,"y":0.5}
},
{
	"filename": "gunner_bl_0078.png",
	"frame": {"x":71,"y":56,"w":77,"h":71},
	"rotated": false,
	"trimmed": true,
	"spriteSourceSize": {"x":71,"y":77,"w":77,"h":71},
	"sourceSize": {"w":260,"h":260},
	"pivot": {"x":0.5,"y":0.5}
},
{
	"filename": "gunner_bl_0079.png",
	"frame": {"x":279,"y":58,"w":80,"h":72},
	"rotated": false,
	"trimmed": true,
	"spriteSourceSize": {"x":68,"y":76,"w":80,"h":72},
	"sourceSize": {"w":260,"h":260},
	"pivot": {"x":0.5,"y":0.5}
},
{
	"filename": "gunner_bl_0080.png",
	"frame": {"x":361,"y":58,"w":82,"h":72},
	"rotated": false,
	"trimmed": true,
	"spriteSourceSize": {"x":67,"y":76,"w":82,"h":72},
	"sourceSize": {"w":260,"h":260},
	"pivot": {"x":0.5,"y":0.5}
},
{
	"filename": "gunner_bl_0081.png",
	"frame": {"x":518,"y":72,"w":85,"h":73},
	"rotated": false,
	"trimmed": true,
	"spriteSourceSize": {"x":67,"y":75,"w":85,"h":73},
	"sourceSize": {"w":260,"h":260},
	"pivot": {"x":0.5,"y":0.5}
},
{
	"filename": "gunner_bl_0082.png",
	"frame": {"x":256,"y":284,"w":85,"h":75},
	"rotated": false,
	"trimmed": true,
	"spriteSourceSize": {"x":68,"y":73,"w":85,"h":75},
	"sourceSize": {"w":260,"h":260},
	"pivot": {"x":0.5,"y":0.5}
},
{
	"filename": "gunner_bl_0083.png",
	"frame": {"x":605,"y":72,"w":81,"h":73},
	"rotated": false,
	"trimmed": true,
	"spriteSourceSize": {"x":73,"y":75,"w":81,"h":73},
	"sourceSize": {"w":260,"h":260},
	"pivot": {"x":0.5,"y":0.5}
},
{
	"filename": "gunner_bl_0084.png",
	"frame": {"x":688,"y":73,"w":72,"h":73},
	"rotated": false,
	"trimmed": true,
	"spriteSourceSize": {"x":82,"y":75,"w":72,"h":73},
	"sourceSize": {"w":260,"h":260},
	"pivot": {"x":0.5,"y":0.5}
},
{
	"filename": "gunner_bl_0085.png",
	"frame": {"x":762,"y":73,"w":73,"h":73},
	"rotated": false,
	"trimmed": true,
	"spriteSourceSize": {"x":82,"y":75,"w":73,"h":73},
	"sourceSize": {"w":260,"h":260},
	"pivot": {"x":0.5,"y":0.5}
},
{
	"filename": "gunner_bl_0086.png",
	"frame": {"x":182,"y":208,"w":71,"h":74},
	"rotated": false,
	"trimmed": true,
	"spriteSourceSize": {"x":82,"y":74,"w":71,"h":74},
	"sourceSize": {"w":260,"h":260},
	"pivot": {"x":0.5,"y":0.5}
},
{
	"filename": "gunner_bl_0087.png",
	"frame": {"x":255,"y":208,"w":70,"h":74},
	"rotated": false,
	"trimmed": true,
	"spriteSourceSize": {"x":81,"y":74,"w":70,"h":74},
	"sourceSize": {"w":260,"h":260},
	"pivot": {"x":0.5,"y":0.5}
},
{
	"filename": "gunner_bl_0088.png",
	"frame": {"x":491,"y":300,"w":70,"h":75},
	"rotated": false,
	"trimmed": true,
	"spriteSourceSize": {"x":80,"y":73,"w":70,"h":75},
	"sourceSize": {"w":260,"h":260},
	"pivot": {"x":0.5,"y":0.5}
},
{
	"filename": "gunner_bl_0089.png",
	"frame": {"x":442,"y":377,"w":69,"h":76},
	"rotated": false,
	"trimmed": true,
	"spriteSourceSize": {"x":79,"y":72,"w":69,"h":76},
	"sourceSize": {"w":260,"h":260},
	"pivot": {"x":0.5,"y":0.5}
},
{
	"filename": "gunner_bl_0090.png",
	"frame": {"x":513,"y":377,"w":68,"h":76},
	"rotated": false,
	"trimmed": true,
	"spriteSourceSize": {"x":79,"y":72,"w":68,"h":76},
	"sourceSize": {"w":260,"h":260},
	"pivot": {"x":0.5,"y":0.5}
},
{
	"filename": "gunner_bl_0091.png",
	"frame": {"x":583,"y":379,"w":66,"h":76},
	"rotated": false,
	"trimmed": true,
	"spriteSourceSize": {"x":79,"y":72,"w":66,"h":76},
	"sourceSize": {"w":260,"h":260},
	"pivot": {"x":0.5,"y":0.5}
},
{
	"filename": "gunner_bl_0092.png",
	"frame": {"x":651,"y":379,"w":64,"h":76},
	"rotated": false,
	"trimmed": true,
	"spriteSourceSize": {"x":80,"y":72,"w":64,"h":76},
	"sourceSize": {"w":260,"h":260},
	"pivot": {"x":0.5,"y":0.5}
},
{
	"filename": "gunner_bl_0093.png",
	"frame": {"x":717,"y":379,"w":61,"h":76},
	"rotated": false,
	"trimmed": true,
	"spriteSourceSize": {"x":82,"y":72,"w":61,"h":76},
	"sourceSize": {"w":260,"h":260},
	"pivot": {"x":0.5,"y":0.5}
},
{
	"filename": "gunner_bl_0094.png",
	"frame": {"x":780,"y":379,"w":59,"h":76},
	"rotated": false,
	"trimmed": true,
	"spriteSourceSize": {"x":85,"y":72,"w":59,"h":76},
	"sourceSize": {"w":260,"h":260},
	"pivot": {"x":0.5,"y":0.5}
},
{
	"filename": "gunner_bl_0095.png",
	"frame": {"x":387,"y":289,"w":57,"h":75},
	"rotated": false,
	"trimmed": true,
	"spriteSourceSize": {"x":88,"y":73,"w":57,"h":75},
	"sourceSize": {"w":260,"h":260},
	"pivot": {"x":0.5,"y":0.5}
},
{
	"filename": "gunner_bl_0096.png",
	"frame": {"x":598,"y":457,"w":55,"h":77},
	"rotated": false,
	"trimmed": true,
	"spriteSourceSize": {"x":91,"y":73,"w":55,"h":77},
	"sourceSize": {"w":260,"h":260},
	"pivot": {"x":0.5,"y":0.5}
},
{
	"filename": "gunner_bl_0097.png",
	"frame": {"x":872,"y":461,"w":52,"h":78},
	"rotated": false,
	"trimmed": true,
	"spriteSourceSize": {"x":94,"y":73,"w":52,"h":78},
	"sourceSize": {"w":260,"h":260},
	"pivot": {"x":0.5,"y":0.5}
},
{
	"filename": "gunner_bl_0098.png",
	"frame": {"x":246,"y":523,"w":51,"h":79},
	"rotated": false,
	"trimmed": true,
	"spriteSourceSize": {"x":96,"y":73,"w":51,"h":79},
	"sourceSize": {"w":260,"h":260},
	"pivot": {"x":0.5,"y":0.5}
},
{
	"filename": "gunner_bl_0099.png",
	"frame": {"x":926,"y":463,"w":52,"h":78},
	"rotated": false,
	"trimmed": true,
	"spriteSourceSize": {"x":95,"y":74,"w":52,"h":78},
	"sourceSize": {"w":260,"h":260},
	"pivot": {"x":0.5,"y":0.5}
},
{
	"filename": "gunner_bl_0100.png",
	"frame": {"x":841,"y":380,"w":52,"h":76},
	"rotated": false,
	"trimmed": true,
	"spriteSourceSize": {"x":96,"y":74,"w":52,"h":76},
	"sourceSize": {"w":260,"h":260},
	"pivot": {"x":0.5,"y":0.5}
},
{
	"filename": "gunner_bl_0101.png",
	"frame": {"x":837,"y":73,"w":58,"h":73},
	"rotated": false,
	"trimmed": true,
	"spriteSourceSize": {"x":93,"y":73,"w":58,"h":73},
	"sourceSize": {"w":260,"h":260},
	"pivot": {"x":0.5,"y":0.5}
},
{
	"filename": "gunner_bl_0102.png",
	"frame": {"x":897,"y":73,"w":60,"h":73},
	"rotated": false,
	"trimmed": true,
	"spriteSourceSize": {"x":93,"y":71,"w":60,"h":73},
	"sourceSize": {"w":260,"h":260},
	"pivot": {"x":0.5,"y":0.5}
},
{
	"filename": "gunner_bl_0103.png",
	"frame": {"x":327,"y":208,"w":63,"h":74},
	"rotated": false,
	"trimmed": true,
	"spriteSourceSize": {"x":96,"y":70,"w":63,"h":74},
	"sourceSize": {"w":260,"h":260},
	"pivot": {"x":0.5,"y":0.5}
},
{
	"filename": "gunner_bl_0104.png",
	"frame": {"x":563,"y":300,"w":64,"h":75},
	"rotated": false,
	"trimmed": true,
	"spriteSourceSize": {"x":102,"y":71,"w":64,"h":75},
	"sourceSize": {"w":260,"h":260},
	"pivot": {"x":0.5,"y":0.5}
},
{
	"filename": "gunner_bl_0105.png",
	"frame": {"x":1,"y":516,"w":63,"h":78},
	"rotated": false,
	"trimmed": true,
	"spriteSourceSize": {"x":110,"y":68,"w":63,"h":78},
	"sourceSize": {"w":260,"h":260},
	"pivot": {"x":0.5,"y":0.5}
},
{
	"filename": "gunner_bl_0106.png",
	"frame": {"x":503,"y":536,"w":65,"h":81},
	"rotated": false,
	"trimmed": true,
	"spriteSourceSize": {"x":111,"y":63,"w":65,"h":81},
	"sourceSize": {"w":260,"h":260},
	"pivot": {"x":0.5,"y":0.5}
},
{
	"filename": "gunner_bl_0107.png",
	"frame": {"x":66,"y":517,"w":66,"h":78},
	"rotated": false,
	"trimmed": true,
	"spriteSourceSize": {"x":111,"y":63,"w":66,"h":78},
	"sourceSize": {"w":260,"h":260},
	"pivot": {"x":0.5,"y":0.5}
},
{
	"filename": "gunner_bl_0108.png",
	"frame": {"x":445,"y":62,"w":71,"h":72},
	"rotated": false,
	"trimmed": true,
	"spriteSourceSize": {"x":106,"y":66,"w":71,"h":72},
	"sourceSize": {"w":260,"h":260},
	"pivot": {"x":0.5,"y":0.5}
},
{
	"filename": "gunner_bl_0109.png",
	"frame": {"x":167,"y":439,"w":75,"h":76},
	"rotated": false,
	"trimmed": true,
	"spriteSourceSize": {"x":102,"y":63,"w":75,"h":76},
	"sourceSize": {"w":260,"h":260},
	"pivot": {"x":0.5,"y":0.5}
},
{
	"filename": "gunner_bl_0110.png",
	"frame": {"x":419,"y":534,"w":82,"h":79},
	"rotated": false,
	"trimmed": true,
	"spriteSourceSize": {"x":101,"y":64,"w":82,"h":79},
	"sourceSize": {"w":260,"h":260},
	"pivot": {"x":0.5,"y":0.5}
},
{
	"filename": "gunner_bl_0111.png",
	"frame": {"x":1,"y":129,"w":70,"h":73},
	"rotated": false,
	"trimmed": true,
	"spriteSourceSize": {"x":106,"y":75,"w":70,"h":73},
	"sourceSize": {"w":260,"h":260},
	"pivot": {"x":0.5,"y":0.5}
},
{
	"filename": "gunner_bl_0112.png",
	"frame": {"x":473,"y":1,"w":65,"h":59},
	"rotated": false,
	"trimmed": true,
	"spriteSourceSize": {"x":113,"y":92,"w":65,"h":59},
	"sourceSize": {"w":260,"h":260},
	"pivot": {"x":0.5,"y":0.5}
},
{
	"filename": "gunner_bl_0113.png",
	"frame": {"x":244,"y":1,"w":65,"h":55},
	"rotated": false,
	"trimmed": true,
	"spriteSourceSize": {"x":104,"y":97,"w":65,"h":55},
	"sourceSize": {"w":260,"h":260},
	"pivot": {"x":0.5,"y":0.5}
},
{
	"filename": "gunner_bl_0114.png",
	"frame": {"x":311,"y":1,"w":52,"h":55},
	"rotated": false,
	"trimmed": true,
	"spriteSourceSize": {"x":105,"y":101,"w":52,"h":55},
	"sourceSize": {"w":260,"h":260},
	"pivot": {"x":0.5,"y":0.5}
},
{
	"filename": "gunner_bl_0115.png",
	"frame": {"x":365,"y":1,"w":52,"h":55},
	"rotated": false,
	"trimmed": true,
	"spriteSourceSize": {"x":106,"y":101,"w":52,"h":55},
	"sourceSize": {"w":260,"h":260},
	"pivot": {"x":0.5,"y":0.5}
},
{
	"filename": "gunner_bl_0116.png",
	"frame": {"x":419,"y":1,"w":52,"h":55},
	"rotated": false,
	"trimmed": true,
	"spriteSourceSize": {"x":107,"y":101,"w":52,"h":55},
	"sourceSize": {"w":260,"h":260},
	"pivot": {"x":0.5,"y":0.5}
},
{
	"filename": "gunner_bl_0117.png",
	"frame": {"x":1,"y":1,"w":55,"h":53},
	"rotated": false,
	"trimmed": true,
	"spriteSourceSize": {"x":105,"y":102,"w":55,"h":53},
	"sourceSize": {"w":260,"h":260},
	"pivot": {"x":0.5,"y":0.5}
},
{
	"filename": "gunner_bl_0118.png",
	"frame": {"x":58,"y":1,"w":58,"h":53},
	"rotated": false,
	"trimmed": true,
	"spriteSourceSize": {"x":103,"y":102,"w":58,"h":53},
	"sourceSize": {"w":260,"h":260},
	"pivot": {"x":0.5,"y":0.5}
},
{
	"filename": "gunner_bl_0119.png",
	"frame": {"x":118,"y":1,"w":61,"h":53},
	"rotated": false,
	"trimmed": true,
	"spriteSourceSize": {"x":101,"y":101,"w":61,"h":53},
	"sourceSize": {"w":260,"h":260},
	"pivot": {"x":0.5,"y":0.5}
},
{
	"filename": "gunner_bl_0120.png",
	"frame": {"x":181,"y":1,"w":61,"h":53},
	"rotated": false,
	"trimmed": true,
	"spriteSourceSize": {"x":101,"y":101,"w":61,"h":53},
	"sourceSize": {"w":260,"h":260},
	"pivot": {"x":0.5,"y":0.5}
}],
"meta": {
	"app": "http://www.codeandweb.com/texturepacker",
	"version": "1.0",
	"image": "gunner_bl.png",
	"format": "RGBA8888",
	"size": {"w":1024,"h":1024},
	"scale": "1",
	"smartupdate": "$TexturePacker:SmartUpdate:f22b8221277ac919181ff0218dc42e06:77724c1cb987ada5fade689438b49060:088addb63ab4a88caa4d152f2f1066ad$"
}
}
