{"frames": [

{
	"filename": "artillery_tl_0000.png",
	"frame": {"x":907,"y":268,"w":68,"h":69},
	"rotated": false,
	"trimmed": true,
	"spriteSourceSize": {"x":91,"y":73,"w":68,"h":69},
	"sourceSize": {"w":260,"h":260},
	"pivot": {"x":0.5,"y":0.5}
},
{
	"filename": "artillery_tl_0001.png",
	"frame": {"x":1,"y":324,"w":69,"h":69},
	"rotated": false,
	"trimmed": true,
	"spriteSourceSize": {"x":91,"y":73,"w":69,"h":69},
	"sourceSize": {"w":260,"h":260},
	"pivot": {"x":0.5,"y":0.5}
},
{
	"filename": "artillery_tl_0002.png",
	"frame": {"x":72,"y":324,"w":70,"h":69},
	"rotated": false,
	"trimmed": true,
	"spriteSourceSize": {"x":90,"y":73,"w":70,"h":69},
	"sourceSize": {"w":260,"h":260},
	"pivot": {"x":0.5,"y":0.5}
},
{
	"filename": "artillery_tl_0003.png",
	"frame": {"x":144,"y":330,"w":70,"h":69},
	"rotated": false,
	"trimmed": true,
	"spriteSourceSize": {"x":90,"y":73,"w":70,"h":69},
	"sourceSize": {"w":260,"h":260},
	"pivot": {"x":0.5,"y":0.5}
},
{
	"filename": "artillery_tl_0004.png",
	"frame": {"x":216,"y":331,"w":70,"h":69},
	"rotated": false,
	"trimmed": true,
	"spriteSourceSize": {"x":90,"y":74,"w":70,"h":69},
	"sourceSize": {"w":260,"h":260},
	"pivot": {"x":0.5,"y":0.5}
},
{
	"filename": "artillery_tl_0005.png",
	"frame": {"x":288,"y":333,"w":71,"h":69},
	"rotated": false,
	"trimmed": true,
	"spriteSourceSize": {"x":89,"y":74,"w":71,"h":69},
	"sourceSize": {"w":260,"h":260},
	"pivot": {"x":0.5,"y":0.5}
},
{
	"filename": "artillery_tl_0006.png",
	"frame": {"x":361,"y":335,"w":72,"h":69},
	"rotated": false,
	"trimmed": true,
	"spriteSourceSize": {"x":88,"y":74,"w":72,"h":69},
	"sourceSize": {"w":260,"h":260},
	"pivot": {"x":0.5,"y":0.5}
},
{
	"filename": "artillery_tl_0007.png",
	"frame": {"x":435,"y":335,"w":72,"h":69},
	"rotated": false,
	"trimmed": true,
	"spriteSourceSize": {"x":88,"y":74,"w":72,"h":69},
	"sourceSize": {"w":260,"h":260},
	"pivot": {"x":0.5,"y":0.5}
},
{
	"filename": "artillery_tl_0008.png",
	"frame": {"x":509,"y":336,"w":72,"h":69},
	"rotated": false,
	"trimmed": true,
	"spriteSourceSize": {"x":88,"y":74,"w":72,"h":69},
	"sourceSize": {"w":260,"h":260},
	"pivot": {"x":0.5,"y":0.5}
},
{
	"filename": "artillery_tl_0009.png",
	"frame": {"x":201,"y":473,"w":73,"h":70},
	"rotated": false,
	"trimmed": true,
	"spriteSourceSize": {"x":88,"y":74,"w":73,"h":70},
	"sourceSize": {"w":260,"h":260},
	"pivot": {"x":0.5,"y":0.5}
},
{
	"filename": "artillery_tl_0010.png",
	"frame": {"x":336,"y":477,"w":74,"h":70},
	"rotated": false,
	"trimmed": true,
	"spriteSourceSize": {"x":87,"y":74,"w":74,"h":70},
	"sourceSize": {"w":260,"h":260},
	"pivot": {"x":0.5,"y":0.5}
},
{
	"filename": "artillery_tl_0011.png",
	"frame": {"x":583,"y":337,"w":74,"h":69},
	"rotated": false,
	"trimmed": true,
	"spriteSourceSize": {"x":87,"y":75,"w":74,"h":69},
	"sourceSize": {"w":260,"h":260},
	"pivot": {"x":0.5,"y":0.5}
},
{
	"filename": "artillery_tl_0012.png",
	"frame": {"x":659,"y":337,"w":74,"h":69},
	"rotated": false,
	"trimmed": true,
	"spriteSourceSize": {"x":87,"y":75,"w":74,"h":69},
	"sourceSize": {"w":260,"h":260},
	"pivot": {"x":0.5,"y":0.5}
},
{
	"filename": "artillery_tl_0013.png",
	"frame": {"x":735,"y":337,"w":74,"h":69},
	"rotated": false,
	"trimmed": true,
	"spriteSourceSize": {"x":87,"y":75,"w":74,"h":69},
	"sourceSize": {"w":260,"h":260},
	"pivot": {"x":0.5,"y":0.5}
},
{
	"filename": "artillery_tl_0014.png",
	"frame": {"x":811,"y":338,"w":74,"h":69},
	"rotated": false,
	"trimmed": true,
	"spriteSourceSize": {"x":87,"y":75,"w":74,"h":69},
	"sourceSize": {"w":260,"h":260},
	"pivot": {"x":0.5,"y":0.5}
},
{
	"filename": "artillery_tl_0015.png",
	"frame": {"x":887,"y":339,"w":74,"h":69},
	"rotated": false,
	"trimmed": true,
	"spriteSourceSize": {"x":87,"y":75,"w":74,"h":69},
	"sourceSize": {"w":260,"h":260},
	"pivot": {"x":0.5,"y":0.5}
},
{
	"filename": "artillery_tl_0017.png",
	"frame": {"x":1,"y":395,"w":68,"h":69},
	"rotated": false,
	"trimmed": true,
	"spriteSourceSize": {"x":91,"y":73,"w":68,"h":69},
	"sourceSize": {"w":260,"h":260},
	"pivot": {"x":0.5,"y":0.5}
},
{
	"filename": "artillery_tl_0018.png",
	"frame": {"x":232,"y":190,"w":69,"h":68},
	"rotated": false,
	"trimmed": true,
	"spriteSourceSize": {"x":91,"y":74,"w":69,"h":68},
	"sourceSize": {"w":260,"h":260},
	"pivot": {"x":0.5,"y":0.5}
},
{
	"filename": "artillery_tl_0019.png",
	"frame": {"x":234,"y":121,"w":70,"h":67},
	"rotated": false,
	"trimmed": true,
	"spriteSourceSize": {"x":91,"y":75,"w":70,"h":67},
	"sourceSize": {"w":260,"h":260},
	"pivot": {"x":0.5,"y":0.5}
},
{
	"filename": "artillery_tl_0020.png",
	"frame": {"x":942,"y":61,"w":71,"h":66},
	"rotated": false,
	"trimmed": true,
	"spriteSourceSize": {"x":90,"y":77,"w":71,"h":66},
	"sourceSize": {"w":260,"h":260},
	"pivot": {"x":0.5,"y":0.5}
},
{
	"filename": "artillery_tl_0021.png",
	"frame": {"x":213,"y":402,"w":72,"h":69},
	"rotated": false,
	"trimmed": true,
	"spriteSourceSize": {"x":90,"y":75,"w":72,"h":69},
	"sourceSize": {"w":260,"h":260},
	"pivot": {"x":0.5,"y":0.5}
},
{
	"filename": "artillery_tl_0022.png",
	"frame": {"x":741,"y":480,"w":72,"h":71},
	"rotated": false,
	"trimmed": true,
	"spriteSourceSize": {"x":91,"y":73,"w":72,"h":71},
	"sourceSize": {"w":260,"h":260},
	"pivot": {"x":0.5,"y":0.5}
},
{
	"filename": "artillery_tl_0023.png",
	"frame": {"x":409,"y":550,"w":71,"h":74},
	"rotated": false,
	"trimmed": true,
	"spriteSourceSize": {"x":92,"y":70,"w":71,"h":74},
	"sourceSize": {"w":260,"h":260},
	"pivot": {"x":0.5,"y":0.5}
},
{
	"filename": "artillery_tl_0024.png",
	"frame": {"x":694,"y":553,"w":71,"h":75},
	"rotated": false,
	"trimmed": true,
	"spriteSourceSize": {"x":92,"y":69,"w":71,"h":75},
	"sourceSize": {"w":260,"h":260},
	"pivot": {"x":0.5,"y":0.5}
},
{
	"filename": "artillery_tl_0025.png",
	"frame": {"x":767,"y":554,"w":72,"h":75},
	"rotated": false,
	"trimmed": true,
	"spriteSourceSize": {"x":90,"y":69,"w":72,"h":75},
	"sourceSize": {"w":260,"h":260},
	"pivot": {"x":0.5,"y":0.5}
},
{
	"filename": "artillery_tl_0026.png",
	"frame": {"x":482,"y":551,"w":71,"h":74},
	"rotated": false,
	"trimmed": true,
	"spriteSourceSize": {"x":90,"y":69,"w":71,"h":74},
	"sourceSize": {"w":260,"h":260},
	"pivot": {"x":0.5,"y":0.5}
},
{
	"filename": "artillery_tl_0027.png",
	"frame": {"x":130,"y":543,"w":69,"h":73},
	"rotated": false,
	"trimmed": true,
	"spriteSourceSize": {"x":92,"y":70,"w":69,"h":73},
	"sourceSize": {"w":260,"h":260},
	"pivot": {"x":0.5,"y":0.5}
},
{
	"filename": "artillery_tl_0028.png",
	"frame": {"x":555,"y":551,"w":64,"h":74},
	"rotated": false,
	"trimmed": true,
	"spriteSourceSize": {"x":102,"y":71,"w":64,"h":74},
	"sourceSize": {"w":260,"h":260},
	"pivot": {"x":0.5,"y":0.5}
},
{
	"filename": "artillery_tl_0029.png",
	"frame": {"x":388,"y":704,"w":64,"h":82},
	"rotated": false,
	"trimmed": true,
	"spriteSourceSize": {"x":108,"y":67,"w":64,"h":82},
	"sourceSize": {"w":260,"h":260},
	"pivot": {"x":0.5,"y":0.5}
},
{
	"filename": "artillery_tl_0030.png",
	"frame": {"x":608,"y":709,"w":65,"h":85},
	"rotated": false,
	"trimmed": true,
	"spriteSourceSize": {"x":108,"y":66,"w":65,"h":85},
	"sourceSize": {"w":260,"h":260},
	"pivot": {"x":0.5,"y":0.5}
},
{
	"filename": "artillery_tl_0031.png",
	"frame": {"x":321,"y":702,"w":65,"h":81},
	"rotated": false,
	"trimmed": true,
	"spriteSourceSize": {"x":108,"y":69,"w":65,"h":81},
	"sourceSize": {"w":260,"h":260},
	"pivot": {"x":0.5,"y":0.5}
},
{
	"filename": "artillery_tl_0032.png",
	"frame": {"x":271,"y":547,"w":62,"h":75},
	"rotated": false,
	"trimmed": true,
	"spriteSourceSize": {"x":108,"y":73,"w":62,"h":75},
	"sourceSize": {"w":260,"h":260},
	"pivot": {"x":0.5,"y":0.5}
},
{
	"filename": "artillery_tl_0033.png",
	"frame": {"x":841,"y":554,"w":63,"h":75},
	"rotated": false,
	"trimmed": true,
	"spriteSourceSize": {"x":105,"y":71,"w":63,"h":75},
	"sourceSize": {"w":260,"h":260},
	"pivot": {"x":0.5,"y":0.5}
},
{
	"filename": "artillery_tl_0034.png",
	"frame": {"x":906,"y":555,"w":68,"h":75},
	"rotated": false,
	"trimmed": true,
	"spriteSourceSize": {"x":96,"y":68,"w":68,"h":75},
	"sourceSize": {"w":260,"h":260},
	"pivot": {"x":0.5,"y":0.5}
},
{
	"filename": "artillery_tl_0035.png",
	"frame": {"x":621,"y":551,"w":71,"h":74},
	"rotated": false,
	"trimmed": true,
	"spriteSourceSize": {"x":91,"y":68,"w":71,"h":74},
	"sourceSize": {"w":260,"h":260},
	"pivot": {"x":0.5,"y":0.5}
},
{
	"filename": "artillery_tl_0036.png",
	"frame": {"x":935,"y":481,"w":73,"h":72},
	"rotated": false,
	"trimmed": true,
	"spriteSourceSize": {"x":88,"y":70,"w":73,"h":72},
	"sourceSize": {"w":260,"h":260},
	"pivot": {"x":0.5,"y":0.5}
},
{
	"filename": "artillery_tl_0037.png",
	"frame": {"x":306,"y":123,"w":74,"h":67},
	"rotated": false,
	"trimmed": true,
	"spriteSourceSize": {"x":87,"y":75,"w":74,"h":67},
	"sourceSize": {"w":260,"h":260},
	"pivot": {"x":0.5,"y":0.5}
},
{
	"filename": "artillery_tl_0038.png",
	"frame": {"x":446,"y":195,"w":73,"h":68},
	"rotated": false,
	"trimmed": true,
	"spriteSourceSize": {"x":87,"y":74,"w":73,"h":68},
	"sourceSize": {"w":260,"h":260},
	"pivot": {"x":0.5,"y":0.5}
},
{
	"filename": "artillery_tl_0039.png",
	"frame": {"x":71,"y":395,"w":70,"h":69},
	"rotated": false,
	"trimmed": true,
	"spriteSourceSize": {"x":89,"y":73,"w":70,"h":69},
	"sourceSize": {"w":260,"h":260},
	"pivot": {"x":0.5,"y":0.5}
},
{
	"filename": "artillery_tl_0040.png",
	"frame": {"x":143,"y":401,"w":68,"h":69},
	"rotated": false,
	"trimmed": true,
	"spriteSourceSize": {"x":91,"y":73,"w":68,"h":69},
	"sourceSize": {"w":260,"h":260},
	"pivot": {"x":0.5,"y":0.5}
},
{
	"filename": "artillery_tl_0041.png",
	"frame": {"x":378,"y":193,"w":66,"h":68},
	"rotated": false,
	"trimmed": true,
	"spriteSourceSize": {"x":93,"y":73,"w":66,"h":68},
	"sourceSize": {"w":260,"h":260},
	"pivot": {"x":0.5,"y":0.5}
},
{
	"filename": "artillery_tl_0042.png",
	"frame": {"x":382,"y":124,"w":63,"h":67},
	"rotated": false,
	"trimmed": true,
	"spriteSourceSize": {"x":96,"y":73,"w":63,"h":67},
	"sourceSize": {"w":260,"h":260},
	"pivot": {"x":0.5,"y":0.5}
},
{
	"filename": "artillery_tl_0043.png",
	"frame": {"x":447,"y":126,"w":62,"h":67},
	"rotated": false,
	"trimmed": true,
	"spriteSourceSize": {"x":98,"y":73,"w":62,"h":67},
	"sourceSize": {"w":260,"h":260},
	"pivot": {"x":0.5,"y":0.5}
},
{
	"filename": "artillery_tl_0044.png",
	"frame": {"x":511,"y":126,"w":59,"h":67},
	"rotated": false,
	"trimmed": true,
	"spriteSourceSize": {"x":100,"y":73,"w":59,"h":67},
	"sourceSize": {"w":260,"h":260},
	"pivot": {"x":0.5,"y":0.5}
},
{
	"filename": "artillery_tl_0045.png",
	"frame": {"x":572,"y":127,"w":58,"h":67},
	"rotated": false,
	"trimmed": true,
	"spriteSourceSize": {"x":102,"y":73,"w":58,"h":67},
	"sourceSize": {"w":260,"h":260},
	"pivot": {"x":0.5,"y":0.5}
},
{
	"filename": "artillery_tl_0046.png",
	"frame": {"x":632,"y":127,"w":57,"h":67},
	"rotated": false,
	"trimmed": true,
	"spriteSourceSize": {"x":103,"y":73,"w":57,"h":67},
	"sourceSize": {"w":260,"h":260},
	"pivot": {"x":0.5,"y":0.5}
},
{
	"filename": "artillery_tl_0047.png",
	"frame": {"x":1,"y":116,"w":55,"h":66},
	"rotated": false,
	"trimmed": true,
	"spriteSourceSize": {"x":105,"y":74,"w":55,"h":66},
	"sourceSize": {"w":260,"h":260},
	"pivot": {"x":0.5,"y":0.5}
},
{
	"filename": "artillery_tl_0048.png",
	"frame": {"x":58,"y":117,"w":54,"h":66},
	"rotated": false,
	"trimmed": true,
	"spriteSourceSize": {"x":106,"y":74,"w":54,"h":66},
	"sourceSize": {"w":260,"h":260},
	"pivot": {"x":0.5,"y":0.5}
},
{
	"filename": "artillery_tl_0049.png",
	"frame": {"x":584,"y":60,"w":54,"h":65},
	"rotated": false,
	"trimmed": true,
	"spriteSourceSize": {"x":107,"y":75,"w":54,"h":65},
	"sourceSize": {"w":260,"h":260},
	"pivot": {"x":0.5,"y":0.5}
},
{
	"filename": "artillery_tl_0050.png",
	"frame": {"x":640,"y":60,"w":55,"h":65},
	"rotated": false,
	"trimmed": true,
	"spriteSourceSize": {"x":107,"y":75,"w":55,"h":65},
	"sourceSize": {"w":260,"h":260},
	"pivot": {"x":0.5,"y":0.5}
},
{
	"filename": "artillery_tl_0051.png",
	"frame": {"x":697,"y":60,"w":55,"h":65},
	"rotated": false,
	"trimmed": true,
	"spriteSourceSize": {"x":107,"y":75,"w":55,"h":65},
	"sourceSize": {"w":260,"h":260},
	"pivot": {"x":0.5,"y":0.5}
},
{
	"filename": "artillery_tl_0052.png",
	"frame": {"x":451,"y":60,"w":55,"h":64},
	"rotated": false,
	"trimmed": true,
	"spriteSourceSize": {"x":106,"y":75,"w":55,"h":64},
	"sourceSize": {"w":260,"h":260},
	"pivot": {"x":0.5,"y":0.5}
},
{
	"filename": "artillery_tl_0053.png",
	"frame": {"x":754,"y":61,"w":56,"h":65},
	"rotated": false,
	"trimmed": true,
	"spriteSourceSize": {"x":105,"y":74,"w":56,"h":65},
	"sourceSize": {"w":260,"h":260},
	"pivot": {"x":0.5,"y":0.5}
},
{
	"filename": "artillery_tl_0054.png",
	"frame": {"x":812,"y":61,"w":58,"h":65},
	"rotated": false,
	"trimmed": true,
	"spriteSourceSize": {"x":103,"y":74,"w":58,"h":65},
	"sourceSize": {"w":260,"h":260},
	"pivot": {"x":0.5,"y":0.5}
},
{
	"filename": "artillery_tl_0055.png",
	"frame": {"x":114,"y":117,"w":59,"h":66},
	"rotated": false,
	"trimmed": true,
	"spriteSourceSize": {"x":102,"y":73,"w":59,"h":66},
	"sourceSize": {"w":260,"h":260},
	"pivot": {"x":0.5,"y":0.5}
},
{
	"filename": "artillery_tl_0056.png",
	"frame": {"x":175,"y":117,"w":57,"h":66},
	"rotated": false,
	"trimmed": true,
	"spriteSourceSize": {"x":103,"y":73,"w":57,"h":66},
	"sourceSize": {"w":260,"h":260},
	"pivot": {"x":0.5,"y":0.5}
},
{
	"filename": "artillery_tl_0057.png",
	"frame": {"x":691,"y":127,"w":58,"h":67},
	"rotated": false,
	"trimmed": true,
	"spriteSourceSize": {"x":102,"y":73,"w":58,"h":67},
	"sourceSize": {"w":260,"h":260},
	"pivot": {"x":0.5,"y":0.5}
},
{
	"filename": "artillery_tl_0058.png",
	"frame": {"x":751,"y":128,"w":58,"h":67},
	"rotated": false,
	"trimmed": true,
	"spriteSourceSize": {"x":102,"y":73,"w":58,"h":67},
	"sourceSize": {"w":260,"h":260},
	"pivot": {"x":0.5,"y":0.5}
},
{
	"filename": "artillery_tl_0059.png",
	"frame": {"x":276,"y":475,"w":58,"h":70},
	"rotated": false,
	"trimmed": true,
	"spriteSourceSize": {"x":102,"y":73,"w":58,"h":70},
	"sourceSize": {"w":260,"h":260},
	"pivot": {"x":0.5,"y":0.5}
},
{
	"filename": "artillery_tl_0060.png",
	"frame": {"x":815,"y":481,"w":59,"h":71},
	"rotated": false,
	"trimmed": true,
	"spriteSourceSize": {"x":101,"y":73,"w":59,"h":71},
	"sourceSize": {"w":260,"h":260},
	"pivot": {"x":0.5,"y":0.5}
},
{
	"filename": "artillery_tl_0061.png",
	"frame": {"x":412,"y":477,"w":59,"h":70},
	"rotated": false,
	"trimmed": true,
	"spriteSourceSize": {"x":101,"y":73,"w":59,"h":70},
	"sourceSize": {"w":260,"h":260},
	"pivot": {"x":0.5,"y":0.5}
},
{
	"filename": "artillery_tl_0062.png",
	"frame": {"x":521,"y":196,"w":59,"h":68},
	"rotated": false,
	"trimmed": true,
	"spriteSourceSize": {"x":101,"y":73,"w":59,"h":68},
	"sourceSize": {"w":260,"h":260},
	"pivot": {"x":0.5,"y":0.5}
},
{
	"filename": "artillery_tl_0063.png",
	"frame": {"x":582,"y":196,"w":57,"h":68},
	"rotated": false,
	"trimmed": true,
	"spriteSourceSize": {"x":105,"y":74,"w":57,"h":68},
	"sourceSize": {"w":260,"h":260},
	"pivot": {"x":0.5,"y":0.5}
},
{
	"filename": "artillery_tl_0064.png",
	"frame": {"x":641,"y":196,"w":56,"h":68},
	"rotated": false,
	"trimmed": true,
	"spriteSourceSize": {"x":108,"y":75,"w":56,"h":68},
	"sourceSize": {"w":260,"h":260},
	"pivot": {"x":0.5,"y":0.5}
},
{
	"filename": "artillery_tl_0065.png",
	"frame": {"x":638,"y":266,"w":56,"h":69},
	"rotated": false,
	"trimmed": true,
	"spriteSourceSize": {"x":108,"y":75,"w":56,"h":69},
	"sourceSize": {"w":260,"h":260},
	"pivot": {"x":0.5,"y":0.5}
},
{
	"filename": "artillery_tl_0066.png",
	"frame": {"x":699,"y":197,"w":56,"h":68},
	"rotated": false,
	"trimmed": true,
	"spriteSourceSize": {"x":108,"y":75,"w":56,"h":68},
	"sourceSize": {"w":260,"h":260},
	"pivot": {"x":0.5,"y":0.5}
},
{
	"filename": "artillery_tl_0067.png",
	"frame": {"x":811,"y":128,"w":55,"h":67},
	"rotated": false,
	"trimmed": true,
	"spriteSourceSize": {"x":108,"y":75,"w":55,"h":67},
	"sourceSize": {"w":260,"h":260},
	"pivot": {"x":0.5,"y":0.5}
},
{
	"filename": "artillery_tl_0068.png",
	"frame": {"x":757,"y":197,"w":54,"h":68},
	"rotated": false,
	"trimmed": true,
	"spriteSourceSize": {"x":108,"y":74,"w":54,"h":68},
	"sourceSize": {"w":260,"h":260},
	"pivot": {"x":0.5,"y":0.5}
},
{
	"filename": "artillery_tl_0069.png",
	"frame": {"x":868,"y":128,"w":54,"h":67},
	"rotated": false,
	"trimmed": true,
	"spriteSourceSize": {"x":108,"y":74,"w":54,"h":67},
	"sourceSize": {"w":260,"h":260},
	"pivot": {"x":0.5,"y":0.5}
},
{
	"filename": "artillery_tl_0070.png",
	"frame": {"x":924,"y":129,"w":53,"h":67},
	"rotated": false,
	"trimmed": true,
	"spriteSourceSize": {"x":108,"y":73,"w":53,"h":67},
	"sourceSize": {"w":260,"h":260},
	"pivot": {"x":0.5,"y":0.5}
},
{
	"filename": "artillery_tl_0071.png",
	"frame": {"x":1,"y":184,"w":52,"h":67},
	"rotated": false,
	"trimmed": true,
	"spriteSourceSize": {"x":108,"y":73,"w":52,"h":67},
	"sourceSize": {"w":260,"h":260},
	"pivot": {"x":0.5,"y":0.5}
},
{
	"filename": "artillery_tl_0072.png",
	"frame": {"x":55,"y":185,"w":53,"h":67},
	"rotated": false,
	"trimmed": true,
	"spriteSourceSize": {"x":108,"y":73,"w":53,"h":67},
	"sourceSize": {"w":260,"h":260},
	"pivot": {"x":0.5,"y":0.5}
},
{
	"filename": "artillery_tl_0073.png",
	"frame": {"x":110,"y":185,"w":52,"h":67},
	"rotated": false,
	"trimmed": true,
	"spriteSourceSize": {"x":108,"y":73,"w":52,"h":67},
	"sourceSize": {"w":260,"h":260},
	"pivot": {"x":0.5,"y":0.5}
},
{
	"filename": "artillery_tl_0074.png",
	"frame": {"x":813,"y":197,"w":53,"h":68},
	"rotated": false,
	"trimmed": true,
	"spriteSourceSize": {"x":107,"y":72,"w":53,"h":68},
	"sourceSize": {"w":260,"h":260},
	"pivot": {"x":0.5,"y":0.5}
},
{
	"filename": "artillery_tl_0075.png",
	"frame": {"x":868,"y":198,"w":55,"h":68},
	"rotated": false,
	"trimmed": true,
	"spriteSourceSize": {"x":105,"y":72,"w":55,"h":68},
	"sourceSize": {"w":260,"h":260},
	"pivot": {"x":0.5,"y":0.5}
},
{
	"filename": "artillery_tl_0076.png",
	"frame": {"x":925,"y":198,"w":56,"h":68},
	"rotated": false,
	"trimmed": true,
	"spriteSourceSize": {"x":103,"y":72,"w":56,"h":68},
	"sourceSize": {"w":260,"h":260},
	"pivot": {"x":0.5,"y":0.5}
},
{
	"filename": "artillery_tl_0077.png",
	"frame": {"x":963,"y":339,"w":58,"h":69},
	"rotated": false,
	"trimmed": true,
	"spriteSourceSize": {"x":101,"y":72,"w":58,"h":69},
	"sourceSize": {"w":260,"h":260},
	"pivot": {"x":0.5,"y":0.5}
},
{
	"filename": "artillery_tl_0078.png",
	"frame": {"x":1,"y":254,"w":59,"h":68},
	"rotated": false,
	"trimmed": true,
	"spriteSourceSize": {"x":100,"y":72,"w":59,"h":68},
	"sourceSize": {"w":260,"h":260},
	"pivot": {"x":0.5,"y":0.5}
},
{
	"filename": "artillery_tl_0079.png",
	"frame": {"x":287,"y":404,"w":61,"h":69},
	"rotated": false,
	"trimmed": true,
	"spriteSourceSize": {"x":98,"y":72,"w":61,"h":69},
	"sourceSize": {"w":260,"h":260},
	"pivot": {"x":0.5,"y":0.5}
},
{
	"filename": "artillery_tl_0080.png",
	"frame": {"x":62,"y":254,"w":62,"h":68},
	"rotated": false,
	"trimmed": true,
	"spriteSourceSize": {"x":97,"y":72,"w":62,"h":68},
	"sourceSize": {"w":260,"h":260},
	"pivot": {"x":0.5,"y":0.5}
},
{
	"filename": "artillery_tl_0081.png",
	"frame": {"x":126,"y":254,"w":64,"h":68},
	"rotated": false,
	"trimmed": true,
	"spriteSourceSize": {"x":95,"y":72,"w":64,"h":68},
	"sourceSize": {"w":260,"h":260},
	"pivot": {"x":0.5,"y":0.5}
},
{
	"filename": "artillery_tl_0082.png",
	"frame": {"x":192,"y":260,"w":65,"h":68},
	"rotated": false,
	"trimmed": true,
	"spriteSourceSize": {"x":94,"y":72,"w":65,"h":68},
	"sourceSize": {"w":260,"h":260},
	"pivot": {"x":0.5,"y":0.5}
},
{
	"filename": "artillery_tl_0083.png",
	"frame": {"x":164,"y":185,"w":66,"h":67},
	"rotated": false,
	"trimmed": true,
	"spriteSourceSize": {"x":93,"y":73,"w":66,"h":67},
	"sourceSize": {"w":260,"h":260},
	"pivot": {"x":0.5,"y":0.5}
},
{
	"filename": "artillery_tl_0084.png",
	"frame": {"x":259,"y":261,"w":67,"h":68},
	"rotated": false,
	"trimmed": true,
	"spriteSourceSize": {"x":92,"y":73,"w":67,"h":68},
	"sourceSize": {"w":260,"h":260},
	"pivot": {"x":0.5,"y":0.5}
},
{
	"filename": "artillery_tl_0085.png",
	"frame": {"x":350,"y":406,"w":68,"h":69},
	"rotated": false,
	"trimmed": true,
	"spriteSourceSize": {"x":91,"y":73,"w":68,"h":69},
	"sourceSize": {"w":260,"h":260},
	"pivot": {"x":0.5,"y":0.5}
},
{
	"filename": "artillery_tl_0086.png",
	"frame": {"x":420,"y":406,"w":69,"h":69},
	"rotated": false,
	"trimmed": true,
	"spriteSourceSize": {"x":91,"y":73,"w":69,"h":69},
	"sourceSize": {"w":260,"h":260},
	"pivot": {"x":0.5,"y":0.5}
},
{
	"filename": "artillery_tl_0087.png",
	"frame": {"x":473,"y":478,"w":69,"h":70},
	"rotated": false,
	"trimmed": true,
	"spriteSourceSize": {"x":92,"y":73,"w":69,"h":70},
	"sourceSize": {"w":260,"h":260},
	"pivot": {"x":0.5,"y":0.5}
},
{
	"filename": "artillery_tl_0088.png",
	"frame": {"x":201,"y":545,"w":68,"h":73},
	"rotated": false,
	"trimmed": true,
	"spriteSourceSize": {"x":93,"y":70,"w":68,"h":73},
	"sourceSize": {"w":260,"h":260},
	"pivot": {"x":0.5,"y":0.5}
},
{
	"filename": "artillery_tl_0089.png",
	"frame": {"x":324,"y":624,"w":68,"h":76},
	"rotated": false,
	"trimmed": true,
	"spriteSourceSize": {"x":94,"y":69,"w":68,"h":76},
	"sourceSize": {"w":260,"h":260},
	"pivot": {"x":0.5,"y":0.5}
},
{
	"filename": "artillery_tl_0090.png",
	"frame": {"x":394,"y":626,"w":67,"h":76},
	"rotated": false,
	"trimmed": true,
	"spriteSourceSize": {"x":96,"y":70,"w":67,"h":76},
	"sourceSize": {"w":260,"h":260},
	"pivot": {"x":0.5,"y":0.5}
},
{
	"filename": "artillery_tl_0091.png",
	"frame": {"x":1,"y":611,"w":64,"h":75},
	"rotated": false,
	"trimmed": true,
	"spriteSourceSize": {"x":99,"y":71,"w":64,"h":75},
	"sourceSize": {"w":260,"h":260},
	"pivot": {"x":0.5,"y":0.5}
},
{
	"filename": "artillery_tl_0092.png",
	"frame": {"x":129,"y":618,"w":63,"h":75},
	"rotated": false,
	"trimmed": true,
	"spriteSourceSize": {"x":101,"y":72,"w":63,"h":75},
	"sourceSize": {"w":260,"h":260},
	"pivot": {"x":0.5,"y":0.5}
},
{
	"filename": "artillery_tl_0093.png",
	"frame": {"x":194,"y":620,"w":62,"h":75},
	"rotated": false,
	"trimmed": true,
	"spriteSourceSize": {"x":103,"y":72,"w":62,"h":75},
	"sourceSize": {"w":260,"h":260},
	"pivot": {"x":0.5,"y":0.5}
},
{
	"filename": "artillery_tl_0094.png",
	"frame": {"x":67,"y":615,"w":60,"h":77},
	"rotated": false,
	"trimmed": true,
	"spriteSourceSize": {"x":105,"y":71,"w":60,"h":77},
	"sourceSize": {"w":260,"h":260},
	"pivot": {"x":0.5,"y":0.5}
},
{
	"filename": "artillery_tl_0095.png",
	"frame": {"x":591,"y":627,"w":59,"h":77},
	"rotated": false,
	"trimmed": true,
	"spriteSourceSize": {"x":106,"y":71,"w":59,"h":77},
	"sourceSize": {"w":260,"h":260},
	"pivot": {"x":0.5,"y":0.5}
},
{
	"filename": "artillery_tl_0096.png",
	"frame": {"x":652,"y":630,"w":60,"h":77},
	"rotated": false,
	"trimmed": true,
	"spriteSourceSize": {"x":106,"y":71,"w":60,"h":77},
	"sourceSize": {"w":260,"h":260},
	"pivot": {"x":0.5,"y":0.5}
},
{
	"filename": "artillery_tl_0097.png",
	"frame": {"x":714,"y":631,"w":59,"h":77},
	"rotated": false,
	"trimmed": true,
	"spriteSourceSize": {"x":107,"y":71,"w":59,"h":77},
	"sourceSize": {"w":260,"h":260},
	"pivot": {"x":0.5,"y":0.5}
},
{
	"filename": "artillery_tl_0098.png",
	"frame": {"x":959,"y":632,"w":59,"h":78},
	"rotated": false,
	"trimmed": true,
	"spriteSourceSize": {"x":107,"y":71,"w":59,"h":78},
	"sourceSize": {"w":260,"h":260},
	"pivot": {"x":0.5,"y":0.5}
},
{
	"filename": "artillery_tl_0099.png",
	"frame": {"x":1,"y":688,"w":59,"h":78},
	"rotated": false,
	"trimmed": true,
	"spriteSourceSize": {"x":107,"y":71,"w":59,"h":78},
	"sourceSize": {"w":260,"h":260},
	"pivot": {"x":0.5,"y":0.5}
},
{
	"filename": "artillery_tl_0100.png",
	"frame": {"x":62,"y":694,"w":59,"h":78},
	"rotated": false,
	"trimmed": true,
	"spriteSourceSize": {"x":107,"y":71,"w":59,"h":78},
	"sourceSize": {"w":260,"h":260},
	"pivot": {"x":0.5,"y":0.5}
},
{
	"filename": "artillery_tl_0101.png",
	"frame": {"x":123,"y":695,"w":59,"h":78},
	"rotated": false,
	"trimmed": true,
	"spriteSourceSize": {"x":107,"y":71,"w":59,"h":78},
	"sourceSize": {"w":260,"h":260},
	"pivot": {"x":0.5,"y":0.5}
},
{
	"filename": "artillery_tl_0102.png",
	"frame": {"x":184,"y":697,"w":59,"h":78},
	"rotated": false,
	"trimmed": true,
	"spriteSourceSize": {"x":107,"y":71,"w":59,"h":78},
	"sourceSize": {"w":260,"h":260},
	"pivot": {"x":0.5,"y":0.5}
},
{
	"filename": "artillery_tl_0103.png",
	"frame": {"x":775,"y":631,"w":59,"h":77},
	"rotated": false,
	"trimmed": true,
	"spriteSourceSize": {"x":107,"y":71,"w":59,"h":77},
	"sourceSize": {"w":260,"h":260},
	"pivot": {"x":0.5,"y":0.5}
},
{
	"filename": "artillery_tl_0104.png",
	"frame": {"x":836,"y":631,"w":60,"h":77},
	"rotated": false,
	"trimmed": true,
	"spriteSourceSize": {"x":106,"y":71,"w":60,"h":77},
	"sourceSize": {"w":260,"h":260},
	"pivot": {"x":0.5,"y":0.5}
},
{
	"filename": "artillery_tl_0105.png",
	"frame": {"x":898,"y":632,"w":59,"h":77},
	"rotated": false,
	"trimmed": true,
	"spriteSourceSize": {"x":106,"y":71,"w":59,"h":77},
	"sourceSize": {"w":260,"h":260},
	"pivot": {"x":0.5,"y":0.5}
},
{
	"filename": "artillery_tl_0106.png",
	"frame": {"x":68,"y":537,"w":60,"h":76},
	"rotated": false,
	"trimmed": true,
	"spriteSourceSize": {"x":105,"y":71,"w":60,"h":76},
	"sourceSize": {"w":260,"h":260},
	"pivot": {"x":0.5,"y":0.5}
},
{
	"filename": "artillery_tl_0107.png",
	"frame": {"x":463,"y":627,"w":62,"h":76},
	"rotated": false,
	"trimmed": true,
	"spriteSourceSize": {"x":103,"y":70,"w":62,"h":76},
	"sourceSize": {"w":260,"h":260},
	"pivot": {"x":0.5,"y":0.5}
},
{
	"filename": "artillery_tl_0108.png",
	"frame": {"x":527,"y":627,"w":62,"h":76},
	"rotated": false,
	"trimmed": true,
	"spriteSourceSize": {"x":102,"y":70,"w":62,"h":76},
	"sourceSize": {"w":260,"h":260},
	"pivot": {"x":0.5,"y":0.5}
},
{
	"filename": "artillery_tl_0109.png",
	"frame": {"x":258,"y":624,"w":64,"h":75},
	"rotated": false,
	"trimmed": true,
	"spriteSourceSize": {"x":100,"y":70,"w":64,"h":75},
	"sourceSize": {"w":260,"h":260},
	"pivot": {"x":0.5,"y":0.5}
},
{
	"filename": "artillery_tl_0110.png",
	"frame": {"x":1,"y":537,"w":65,"h":72},
	"rotated": false,
	"trimmed": true,
	"spriteSourceSize": {"x":98,"y":72,"w":65,"h":72},
	"sourceSize": {"w":260,"h":260},
	"pivot": {"x":0.5,"y":0.5}
},
{
	"filename": "artillery_tl_0111.png",
	"frame": {"x":544,"y":479,"w":67,"h":70},
	"rotated": false,
	"trimmed": true,
	"spriteSourceSize": {"x":96,"y":74,"w":67,"h":70},
	"sourceSize": {"w":260,"h":260},
	"pivot": {"x":0.5,"y":0.5}
},
{
	"filename": "artillery_tl_0112.png",
	"frame": {"x":491,"y":407,"w":66,"h":69},
	"rotated": false,
	"trimmed": true,
	"spriteSourceSize": {"x":95,"y":74,"w":66,"h":69},
	"sourceSize": {"w":260,"h":260},
	"pivot": {"x":0.5,"y":0.5}
},
{
	"filename": "artillery_tl_0113.png",
	"frame": {"x":613,"y":479,"w":68,"h":70},
	"rotated": false,
	"trimmed": true,
	"spriteSourceSize": {"x":93,"y":73,"w":68,"h":70},
	"sourceSize": {"w":260,"h":260},
	"pivot": {"x":0.5,"y":0.5}
},
{
	"filename": "artillery_tl_0114.png",
	"frame": {"x":559,"y":408,"w":69,"h":69},
	"rotated": false,
	"trimmed": true,
	"spriteSourceSize": {"x":92,"y":73,"w":69,"h":69},
	"sourceSize": {"w":260,"h":260},
	"pivot": {"x":0.5,"y":0.5}
},
{
	"filename": "artillery_tl_0115.png",
	"frame": {"x":630,"y":408,"w":68,"h":69},
	"rotated": false,
	"trimmed": true,
	"spriteSourceSize": {"x":91,"y":73,"w":68,"h":69},
	"sourceSize": {"w":260,"h":260},
	"pivot": {"x":0.5,"y":0.5}
},
{
	"filename": "artillery_tl_0116.png",
	"frame": {"x":328,"y":263,"w":68,"h":68},
	"rotated": false,
	"trimmed": true,
	"spriteSourceSize": {"x":91,"y":73,"w":68,"h":68},
	"sourceSize": {"w":260,"h":260},
	"pivot": {"x":0.5,"y":0.5}
},
{
	"filename": "artillery_tl_0117.png",
	"frame": {"x":700,"y":408,"w":69,"h":69},
	"rotated": false,
	"trimmed": true,
	"spriteSourceSize": {"x":90,"y":72,"w":69,"h":69},
	"sourceSize": {"w":260,"h":260},
	"pivot": {"x":0.5,"y":0.5}
},
{
	"filename": "artillery_tl_0118.png",
	"frame": {"x":771,"y":409,"w":68,"h":69},
	"rotated": false,
	"trimmed": true,
	"spriteSourceSize": {"x":91,"y":73,"w":68,"h":69},
	"sourceSize": {"w":260,"h":260},
	"pivot": {"x":0.5,"y":0.5}
},
{
	"filename": "artillery_tl_0119.png",
	"frame": {"x":841,"y":410,"w":65,"h":69},
	"rotated": false,
	"trimmed": true,
	"spriteSourceSize": {"x":97,"y":75,"w":65,"h":69},
	"sourceSize": {"w":260,"h":260},
	"pivot": {"x":0.5,"y":0.5}
},
{
	"filename": "artillery_tl_0120.png",
	"frame": {"x":398,"y":265,"w":58,"h":68},
	"rotated": false,
	"trimmed": true,
	"spriteSourceSize": {"x":106,"y":79,"w":58,"h":68},
	"sourceSize": {"w":260,"h":260},
	"pivot": {"x":0.5,"y":0.5}
},
{
	"filename": "artillery_tl_0121.png",
	"frame": {"x":683,"y":479,"w":56,"h":70},
	"rotated": false,
	"trimmed": true,
	"spriteSourceSize": {"x":108,"y":80,"w":56,"h":70},
	"sourceSize": {"w":260,"h":260},
	"pivot": {"x":0.5,"y":0.5}
},
{
	"filename": "artillery_tl_0122.png",
	"frame": {"x":876,"y":481,"w":57,"h":71},
	"rotated": false,
	"trimmed": true,
	"spriteSourceSize": {"x":108,"y":80,"w":57,"h":71},
	"sourceSize": {"w":260,"h":260},
	"pivot": {"x":0.5,"y":0.5}
},
{
	"filename": "artillery_tl_0123.png",
	"frame": {"x":458,"y":265,"w":56,"h":68},
	"rotated": false,
	"trimmed": true,
	"spriteSourceSize": {"x":108,"y":80,"w":56,"h":68},
	"sourceSize": {"w":260,"h":260},
	"pivot": {"x":0.5,"y":0.5}
},
{
	"filename": "artillery_tl_0124.png",
	"frame": {"x":516,"y":266,"w":58,"h":68},
	"rotated": false,
	"trimmed": true,
	"spriteSourceSize": {"x":102,"y":75,"w":58,"h":68},
	"sourceSize": {"w":260,"h":260},
	"pivot": {"x":0.5,"y":0.5}
},
{
	"filename": "artillery_tl_0125.png",
	"frame": {"x":908,"y":410,"w":60,"h":69},
	"rotated": false,
	"trimmed": true,
	"spriteSourceSize": {"x":98,"y":71,"w":60,"h":69},
	"sourceSize": {"w":260,"h":260},
	"pivot": {"x":0.5,"y":0.5}
},
{
	"filename": "artillery_tl_0126.png",
	"frame": {"x":576,"y":266,"w":60,"h":68},
	"rotated": false,
	"trimmed": true,
	"spriteSourceSize": {"x":97,"y":71,"w":60,"h":68},
	"sourceSize": {"w":260,"h":260},
	"pivot": {"x":0.5,"y":0.5}
},
{
	"filename": "artillery_tl_0127.png",
	"frame": {"x":696,"y":267,"w":60,"h":68},
	"rotated": false,
	"trimmed": true,
	"spriteSourceSize": {"x":98,"y":71,"w":60,"h":68},
	"sourceSize": {"w":260,"h":260},
	"pivot": {"x":0.5,"y":0.5}
},
{
	"filename": "artillery_tl_0128.png",
	"frame": {"x":1,"y":466,"w":61,"h":69},
	"rotated": false,
	"trimmed": true,
	"spriteSourceSize": {"x":98,"y":71,"w":61,"h":69},
	"sourceSize": {"w":260,"h":260},
	"pivot": {"x":0.5,"y":0.5}
},
{
	"filename": "artillery_tl_0129.png",
	"frame": {"x":64,"y":466,"w":65,"h":69},
	"rotated": false,
	"trimmed": true,
	"spriteSourceSize": {"x":95,"y":72,"w":65,"h":69},
	"sourceSize": {"w":260,"h":260},
	"pivot": {"x":0.5,"y":0.5}
},
{
	"filename": "artillery_tl_0130.png",
	"frame": {"x":131,"y":472,"w":68,"h":69},
	"rotated": false,
	"trimmed": true,
	"spriteSourceSize": {"x":91,"y":73,"w":68,"h":69},
	"sourceSize": {"w":260,"h":260},
	"pivot": {"x":0.5,"y":0.5}
},
{
	"filename": "artillery_tl_0131.png",
	"frame": {"x":758,"y":267,"w":71,"h":68},
	"rotated": false,
	"trimmed": true,
	"spriteSourceSize": {"x":87,"y":74,"w":71,"h":68},
	"sourceSize": {"w":260,"h":260},
	"pivot": {"x":0.5,"y":0.5}
},
{
	"filename": "artillery_tl_0132.png",
	"frame": {"x":831,"y":268,"w":74,"h":68},
	"rotated": false,
	"trimmed": true,
	"spriteSourceSize": {"x":82,"y":73,"w":74,"h":68},
	"sourceSize": {"w":260,"h":260},
	"pivot": {"x":0.5,"y":0.5}
},
{
	"filename": "artillery_tl_0133.png",
	"frame": {"x":245,"y":701,"w":74,"h":77},
	"rotated": false,
	"trimmed": true,
	"spriteSourceSize": {"x":79,"y":64,"w":74,"h":77},
	"sourceSize": {"w":260,"h":260},
	"pivot": {"x":0.5,"y":0.5}
},
{
	"filename": "artillery_tl_0134.png",
	"frame": {"x":534,"y":706,"w":72,"h":84},
	"rotated": false,
	"trimmed": true,
	"spriteSourceSize": {"x":77,"y":56,"w":72,"h":84},
	"sourceSize": {"w":260,"h":260},
	"pivot": {"x":0.5,"y":0.5}
},
{
	"filename": "artillery_tl_0135.png",
	"frame": {"x":752,"y":710,"w":70,"h":87},
	"rotated": false,
	"trimmed": true,
	"spriteSourceSize": {"x":75,"y":53,"w":70,"h":87},
	"sourceSize": {"w":260,"h":260},
	"pivot": {"x":0.5,"y":0.5}
},
{
	"filename": "artillery_tl_0136.png",
	"frame": {"x":675,"y":710,"w":75,"h":86},
	"rotated": false,
	"trimmed": true,
	"spriteSourceSize": {"x":68,"y":53,"w":75,"h":86},
	"sourceSize": {"w":260,"h":260},
	"pivot": {"x":0.5,"y":0.5}
},
{
	"filename": "artillery_tl_0137.png",
	"frame": {"x":824,"y":711,"w":79,"h":89},
	"rotated": false,
	"trimmed": true,
	"spriteSourceSize": {"x":62,"y":50,"w":79,"h":89},
	"sourceSize": {"w":260,"h":260},
	"pivot": {"x":0.5,"y":0.5}
},
{
	"filename": "artillery_tl_0138.png",
	"frame": {"x":905,"y":712,"w":80,"h":90},
	"rotated": false,
	"trimmed": true,
	"spriteSourceSize": {"x":60,"y":48,"w":80,"h":90},
	"sourceSize": {"w":260,"h":260},
	"pivot": {"x":0.5,"y":0.5}
},
{
	"filename": "artillery_tl_0139.png",
	"frame": {"x":454,"y":705,"w":78,"h":83},
	"rotated": false,
	"trimmed": true,
	"spriteSourceSize": {"x":62,"y":54,"w":78,"h":83},
	"sourceSize": {"w":260,"h":260},
	"pivot": {"x":0.5,"y":0.5}
},
{
	"filename": "artillery_tl_0140.png",
	"frame": {"x":335,"y":549,"w":72,"h":73},
	"rotated": false,
	"trimmed": true,
	"spriteSourceSize": {"x":69,"y":63,"w":72,"h":73},
	"sourceSize": {"w":260,"h":260},
	"pivot": {"x":0.5,"y":0.5}
},
{
	"filename": "artillery_tl_0141.png",
	"frame": {"x":316,"y":59,"w":67,"h":62},
	"rotated": false,
	"trimmed": true,
	"spriteSourceSize": {"x":75,"y":73,"w":67,"h":62},
	"sourceSize": {"w":260,"h":260},
	"pivot": {"x":0.5,"y":0.5}
},
{
	"filename": "artillery_tl_0142.png",
	"frame": {"x":801,"y":1,"w":63,"h":58},
	"rotated": false,
	"trimmed": true,
	"spriteSourceSize": {"x":79,"y":77,"w":63,"h":58},
	"sourceSize": {"w":260,"h":260},
	"pivot": {"x":0.5,"y":0.5}
},
{
	"filename": "artillery_tl_0143.png",
	"frame": {"x":444,"y":1,"w":60,"h":57},
	"rotated": false,
	"trimmed": true,
	"spriteSourceSize": {"x":82,"y":78,"w":60,"h":57},
	"sourceSize": {"w":260,"h":260},
	"pivot": {"x":0.5,"y":0.5}
},
{
	"filename": "artillery_tl_0144.png",
	"frame": {"x":506,"y":1,"w":57,"h":57},
	"rotated": false,
	"trimmed": true,
	"spriteSourceSize": {"x":85,"y":78,"w":57,"h":57},
	"sourceSize": {"w":260,"h":260},
	"pivot": {"x":0.5,"y":0.5}
},
{
	"filename": "artillery_tl_0145.png",
	"frame": {"x":565,"y":1,"w":57,"h":57},
	"rotated": false,
	"trimmed": true,
	"spriteSourceSize": {"x":85,"y":78,"w":57,"h":57},
	"sourceSize": {"w":260,"h":260},
	"pivot": {"x":0.5,"y":0.5}
},
{
	"filename": "artillery_tl_0146.png",
	"frame": {"x":624,"y":1,"w":57,"h":57},
	"rotated": false,
	"trimmed": true,
	"spriteSourceSize": {"x":85,"y":78,"w":57,"h":57},
	"sourceSize": {"w":260,"h":260},
	"pivot": {"x":0.5,"y":0.5}
},
{
	"filename": "artillery_tl_0147.png",
	"frame": {"x":683,"y":1,"w":57,"h":57},
	"rotated": false,
	"trimmed": true,
	"spriteSourceSize": {"x":85,"y":78,"w":57,"h":57},
	"sourceSize": {"w":260,"h":260},
	"pivot": {"x":0.5,"y":0.5}
},
{
	"filename": "artillery_tl_0148.png",
	"frame": {"x":742,"y":1,"w":57,"h":57},
	"rotated": false,
	"trimmed": true,
	"spriteSourceSize": {"x":85,"y":78,"w":57,"h":57},
	"sourceSize": {"w":260,"h":260},
	"pivot": {"x":0.5,"y":0.5}
},
{
	"filename": "artillery_tl_0149.png",
	"frame": {"x":866,"y":1,"w":57,"h":58},
	"rotated": false,
	"trimmed": true,
	"spriteSourceSize": {"x":85,"y":77,"w":57,"h":58},
	"sourceSize": {"w":260,"h":260},
	"pivot": {"x":0.5,"y":0.5}
},
{
	"filename": "artillery_tl_0150.png",
	"frame": {"x":925,"y":1,"w":57,"h":58},
	"rotated": false,
	"trimmed": true,
	"spriteSourceSize": {"x":85,"y":77,"w":57,"h":58},
	"sourceSize": {"w":260,"h":260},
	"pivot": {"x":0.5,"y":0.5}
},
{
	"filename": "artillery_tl_0151.png",
	"frame": {"x":1,"y":56,"w":57,"h":58},
	"rotated": false,
	"trimmed": true,
	"spriteSourceSize": {"x":85,"y":77,"w":57,"h":58},
	"sourceSize": {"w":260,"h":260},
	"pivot": {"x":0.5,"y":0.5}
},
{
	"filename": "artillery_tl_0152.png",
	"frame": {"x":60,"y":57,"w":57,"h":58},
	"rotated": false,
	"trimmed": true,
	"spriteSourceSize": {"x":85,"y":77,"w":57,"h":58},
	"sourceSize": {"w":260,"h":260},
	"pivot": {"x":0.5,"y":0.5}
},
{
	"filename": "artillery_tl_0153.png",
	"frame": {"x":119,"y":57,"w":57,"h":58},
	"rotated": false,
	"trimmed": true,
	"spriteSourceSize": {"x":85,"y":77,"w":57,"h":58},
	"sourceSize": {"w":260,"h":260},
	"pivot": {"x":0.5,"y":0.5}
},
{
	"filename": "artillery_tl_0154.png",
	"frame": {"x":254,"y":59,"w":60,"h":60},
	"rotated": false,
	"trimmed": true,
	"spriteSourceSize": {"x":82,"y":75,"w":60,"h":60},
	"sourceSize": {"w":260,"h":260},
	"pivot": {"x":0.5,"y":0.5}
},
{
	"filename": "artillery_tl_0155.png",
	"frame": {"x":385,"y":60,"w":64,"h":62},
	"rotated": false,
	"trimmed": true,
	"spriteSourceSize": {"x":78,"y":73,"w":64,"h":62},
	"sourceSize": {"w":260,"h":260},
	"pivot": {"x":0.5,"y":0.5}
},
{
	"filename": "artillery_tl_0156.png",
	"frame": {"x":872,"y":61,"w":68,"h":65},
	"rotated": false,
	"trimmed": true,
	"spriteSourceSize": {"x":74,"y":72,"w":68,"h":65},
	"sourceSize": {"w":260,"h":260},
	"pivot": {"x":0.5,"y":0.5}
},
{
	"filename": "artillery_tl_0157.png",
	"frame": {"x":303,"y":192,"w":73,"h":67},
	"rotated": false,
	"trimmed": true,
	"spriteSourceSize": {"x":70,"y":72,"w":73,"h":67},
	"sourceSize": {"w":260,"h":260},
	"pivot": {"x":0.5,"y":0.5}
},
{
	"filename": "artillery_tl_0158.png",
	"frame": {"x":508,"y":60,"w":74,"h":64},
	"rotated": false,
	"trimmed": true,
	"spriteSourceSize": {"x":68,"y":76,"w":74,"h":64},
	"sourceSize": {"w":260,"h":260},
	"pivot": {"x":0.5,"y":0.5}
},
{
	"filename": "artillery_tl_0159.png",
	"frame": {"x":178,"y":57,"w":74,"h":58},
	"rotated": false,
	"trimmed": true,
	"spriteSourceSize": {"x":66,"y":81,"w":74,"h":58},
	"sourceSize": {"w":260,"h":260},
	"pivot": {"x":0.5,"y":0.5}
},
{
	"filename": "artillery_tl_0160.png",
	"frame": {"x":297,"y":1,"w":72,"h":56},
	"rotated": false,
	"trimmed": true,
	"spriteSourceSize": {"x":66,"y":83,"w":72,"h":56},
	"sourceSize": {"w":260,"h":260},
	"pivot": {"x":0.5,"y":0.5}
},
{
	"filename": "artillery_tl_0161.png",
	"frame": {"x":371,"y":1,"w":71,"h":56},
	"rotated": false,
	"trimmed": true,
	"spriteSourceSize": {"x":66,"y":82,"w":71,"h":56},
	"sourceSize": {"w":260,"h":260},
	"pivot": {"x":0.5,"y":0.5}
},
{
	"filename": "artillery_tl_0162.png",
	"frame": {"x":74,"y":1,"w":71,"h":54},
	"rotated": false,
	"trimmed": true,
	"spriteSourceSize": {"x":66,"y":84,"w":71,"h":54},
	"sourceSize": {"w":260,"h":260},
	"pivot": {"x":0.5,"y":0.5}
},
{
	"filename": "artillery_tl_0163.png",
	"frame": {"x":1,"y":1,"w":71,"h":53},
	"rotated": false,
	"trimmed": true,
	"spriteSourceSize": {"x":66,"y":85,"w":71,"h":53},
	"sourceSize": {"w":260,"h":260},
	"pivot": {"x":0.5,"y":0.5}
},
{
	"filename": "artillery_tl_0164.png",
	"frame": {"x":147,"y":1,"w":73,"h":54},
	"rotated": false,
	"trimmed": true,
	"spriteSourceSize": {"x":66,"y":85,"w":73,"h":54},
	"sourceSize": {"w":260,"h":260},
	"pivot": {"x":0.5,"y":0.5}
},
{
	"filename": "artillery_tl_0165.png",
	"frame": {"x":222,"y":1,"w":73,"h":54},
	"rotated": false,
	"trimmed": true,
	"spriteSourceSize": {"x":66,"y":85,"w":73,"h":54},
	"sourceSize": {"w":260,"h":260},
	"pivot": {"x":0.5,"y":0.5}
}],
"meta": {
	"app": "http://www.codeandweb.com/texturepacker",
	"version": "1.0",
	"image": "artillery_tl.png",
	"format": "RGBA8888",
	"size": {"w":1024,"h":1024},
	"scale": "1",
	"smartupdate": "$TexturePacker:SmartUpdate:f287caddba37df7143efe74f3d095c61:84aea7c2ac11bd661f69f81d3fb1f458:12bb0a82d4de618aaabd9d62dcb3806c$"
}
}
